<?xml version="1.0" encoding="utf-8"?>
<!-- Generator: Adobe Illustrator 20.1.0, SVG Export Plug-In . SVG Version: 6.00 Build 0)  -->
<svg version="1.1" id="Layer_1" xmlns="http://www.w3.org/2000/svg" xmlns:xlink="http://www.w3.org/1999/xlink" x="0px" y="0px"
	 viewBox="0 0 90 90" style="enable-background:new 0 0 90 90;" xml:space="preserve">
<style type="text/css">
	.st0{fill:#F10733;}
	.st1{fill:#A8B5B8;}
</style>
<path id="SvgjsPath1017" class="st0" d="M70.6,43.2L45.4,17.8c-1-1-2.3-1.5-3.6-1.5c-1.3,0-2.6,0.5-3.6,1.5L24.4,31.7
	c-2,2-2,5.3,0,7.3l2.3,2.4H32l-4.9-5c-0.3-0.3-0.4-0.8-0.4-1c0-0.2,0-0.6,0.4-1l1.8-1.8l8.7,8.8h8.3L33,28.4l7.8-7.9
	c0.3-0.3,0.8-0.4,1-0.4c0.2,0,0.6,0,1,0.4L68,45.9c0.3,0.3,0.4,0.8,0.4,1c0,0.2-0.1,0.6-0.4,1l-1.4,1.4v5.3l4.1-4.1
	C72.6,48.5,72.6,45.2,70.6,43.2z"/>
<path id="SvgjsPath1018" class="st1" d="M23.1,43.3c-2.8,0-5.2,2.3-5.2,5.1V62h45.9V48.4c0-2.8-2.2-5.1-5-5.1H23.1z M27.8,56.3
	c-0.7,0.6-1.6,1-2.6,1c-2,0-3.7-1.7-3.7-3.7c0-2.1,1.7-3.7,3.7-3.7c1,0,1.9,0.4,2.6,1c0.7-0.6,1.6-1,2.6-1c2,0,3.7,1.7,3.7,3.7
	c0,2.1-1.7,3.7-3.7,3.7C29.4,57.4,28.5,57,27.8,56.3z"/>
<path id="SvgjsPath1019" class="st1" d="M17.9,68.6c0,2.8,2.4,5.1,5.2,5.1h35.7c2.8,0,5-2.3,5-5.1v-0.3H17.9V68.6z"/>
</svg>
