<?xml version="1.0" encoding="utf-8"?>
<!-- Generator: Adobe Illustrator 20.1.0, SVG Export Plug-In . SVG Version: 6.00 Build 0)  -->
<svg version="1.1" id="Layer_1" xmlns="http://www.w3.org/2000/svg" xmlns:xlink="http://www.w3.org/1999/xlink" x="0px" y="0px"
	 viewBox="0 0 90 90" style="enable-background:new 0 0 90 90;" xml:space="preserve">
<style type="text/css">
	.st0{fill:#A8B5B8;}
	.st1{fill:#F10733;}
</style>
<path id="SvgjsPath1041" class="st0" d="M38.5,33v-3h13v3H38.5z"/>
<path id="SvgjsPath1042" class="st0" d="M48.7,29.2v-7.7c-1,0.7-2.3,1.5-3.7,1.5c-1.6,0-2.9-0.8-3.7-1.4v7.6H48.7z M46.7,25.7
	c0,0.9-0.8,1.6-1.7,1.6c-0.9,0-1.7-0.7-1.7-1.6s0.8-1.6,1.7-1.6C45.9,24.1,46.7,24.8,46.7,25.7z"/>
<path id="SvgjsPath1043" class="st0" d="M47.8,20.6h-5.7c0.7,0.5,1.7,1,2.9,1C46.1,21.6,47.1,21.1,47.8,20.6z"/>
<path id="SvgjsPath1044" class="st0" d="M44.5,25.7c0-0.3,0.2-0.5,0.5-0.5s0.5,0.2,0.5,0.5s-0.2,0.5-0.5,0.5S44.5,26,44.5,25.7z"/>
<path id="SvgjsPath1045" class="st0" d="M63.8,33.6L63.8,33.6H51.4H38.6H26.2l0,0c-2,0-3.6,1.5-3.6,3.4v27.4c0,1.9,1.5,3.4,3.6,3.4
	h37.6c2.1,0,3.7-1.5,3.7-3.4l0,0V37C67.4,35,65.8,33.6,63.8,33.6z"/>
<path id="SvgjsPath1046" class="st1" d="M13.5,47.6h1.4v-3.7c0-0.7-0.6-1.3-1.4-1.3h-0.8v-1.3c0-2.1-1.4-3.7-3.1-3.7h0
	c-1.7,0-3.1,1.7-3.1,3.7v1.3H5.6c-0.8,0-1.4,0.6-1.4,1.3v3.7h1.6v7.3l-1.8,0.8c-1.5,0.6-2.5,2-2.5,3.6v8.9c0,0,3,1.3,7.8,1.3
	c4.8,0,8.2-1.3,8.2-1.3v-8.6c0-1.7-1-3.3-2.7-4l-1.4-0.6V47.6z M8,54.2v-6h3.5v6H8z M6.1,66.4v-6.7h7v6.7H6.1z"/>
<path id="SvgjsPath1047" class="st1" d="M84.4,47.6h1.4v-3.7c0-0.7-0.6-1.3-1.4-1.3h-0.8v-1.3c0-2.1-1.4-3.7-3.1-3.7h0
	c-1.7,0-3.1,1.7-3.1,3.7v1.3h-0.8c-0.8,0-1.4,0.6-1.4,1.3v3.7h1.6v7.3l-1.8,0.8c-1.5,0.6-2.5,2-2.5,3.6v8.9c0,0,3,1.3,7.8,1.3
	c4.8,0,8.2-1.3,8.2-1.3v-8.6c0-1.7-1-3.3-2.7-4l-1.4-0.6V47.6z M78.8,54.2v-6h3.5v6H78.8z M76.9,66.4v-6.7h7v6.7H76.9z"/>
</svg>
