<?xml version="1.0" encoding="UTF-8" standalone="no"?>
<svg width="121px" height="27px" viewBox="0 0 121 27" version="1.1" xmlns="http://www.w3.org/2000/svg" xmlns:xlink="http://www.w3.org/1999/xlink">
    <!-- Generator: Sketch 40.3 (33839) - http://www.bohemiancoding.com/sketch -->
    <title>Group 10</title>
    <desc>Created with Sketch.</desc>
    <defs></defs>
    <g id="Gift-Mobile---New" stroke="none" stroke-width="1" fill="none" fill-rule="evenodd">
        <g id="Recipient-Design---Wizard-02" transform="translate(-403.000000, -149.000000)">
            <g id="Group-4" transform="translate(34.000000, 138.000000)">
                <g id="Group-10" transform="translate(369.000000, 11.000000)">
                    <g id="Waft-Logo">
                        <g id="Group-2">
                            <path d="M42.3504176,17.0926005 C42.3504176,17.381611 42.0436945,17.6833675 41.4302389,17.9978789 C40.8167834,18.3123904 40.2249373,18.4696438 39.6546829,18.4696438 C38.4623327,18.4696438 37.8402463,17.8661308 37.7884049,16.6590868 C37.1317483,17.9171327 36.1122178,18.5461462 34.7297828,18.5461462 C33.986724,18.5461462 33.3732776,18.3293915 32.8894254,17.8958757 C32.4055731,17.4623599 32.1636506,16.905598 32.1636506,16.2255732 C32.1636506,14.8315224 33.0190195,13.7264987 34.7297828,12.910469 C35.3173177,12.6384591 36.3368482,12.3664533 37.7884049,12.0944433 L37.7884049,11.4569233 C37.7884049,9.96086878 37.7106441,8.97484765 37.5551202,8.4988303 C37.2786332,7.63179871 36.6565468,7.19828942 35.6888423,7.19828942 C35.084027,7.19828942 34.5785817,7.35979288 34.1724915,7.68280465 C33.7664012,8.00581642 33.5633591,8.41382516 33.5633591,8.90684313 C33.5633591,9.04284808 33.6713602,9.11084954 33.8873657,9.11084954 C34.1033711,9.11084954 34.2977731,9.21285173 34.4705775,9.41685916 C34.6433819,9.6208666 34.7297828,9.85037152 34.7297828,10.1053808 C34.7297828,10.8534081 34.3496189,11.2274161 33.5892796,11.2274161 C33.1918295,11.2274161 32.8635062,11.0956633 32.6042996,10.8321537 C32.345093,10.5686441 32.2154917,10.2328869 32.2154917,9.82487199 C32.2154917,9.02584287 32.535175,8.33732811 33.1745512,7.75930705 C33.8830491,7.13028413 34.8680193,6.81577739 36.1294912,6.81577739 C38.0303394,6.81577739 39.1967514,7.32578832 39.6287623,8.34582549 C39.7842863,8.73683974 39.8620471,9.51035632 39.8620471,10.6663984 L39.8620471,15.4350484 C39.8620471,16.2170769 39.8706872,16.6760867 39.8879676,16.8120917 C39.9743698,17.424114 40.2249324,17.7301205 40.6396629,17.7301205 C41.1235151,17.7301205 41.5209592,17.5601169 41.8320071,17.2201045 C42.0048115,17.0330977 42.1344128,16.9395957 42.220815,16.9395957 C42.3072172,16.9395957 42.3504176,16.9905968 42.3504176,17.0926005 L42.3504176,17.0926005 Z M37.7884049,14.3895155 L37.7884049,12.527957 C36.4923721,12.8169675 35.5635625,13.1952256 35.0019483,13.6627426 C34.4403341,14.1302597 34.1595312,14.7550231 34.1595312,15.5370516 C34.1595312,16.0810714 34.3193728,16.527331 34.6390609,16.8758437 C34.958749,17.2243564 35.3605132,17.3986101 35.8443654,17.3986101 C36.5874242,17.3986101 37.1835904,16.9906013 37.6328818,16.1745716 C37.7365644,15.9875648 37.7884049,15.392552 37.7884049,14.3895155 L37.7884049,14.3895155 Z M50.8782709,2.20013228 C50.8782709,2.55714529 50.7702698,2.85040158 50.5542643,3.07990994 C50.3382589,3.30941831 50.057456,3.42417077 49.7118472,3.42417077 C49.3835189,3.42417077 49.1070361,3.32216858 48.8823904,3.11816115 C48.6577447,2.91415371 48.5454235,2.65914824 48.5454235,2.35313709 C48.5454235,2.0981278 48.6577447,1.80062142 48.8823904,1.46060904 C48.9342317,1.37560594 48.9601519,1.2991043 48.9601519,1.23110182 C48.9601519,0.840087573 48.675029,0.644583381 48.1047746,0.644583381 C47.1370701,0.644583381 46.4977035,1.2565965 46.1866556,2.4806411 C46.0311317,3.12666464 45.9533709,4.25718888 45.9533709,5.87224773 L45.9533709,7.12178701 L47.6641256,7.12178701 C48.0097344,7.12178701 48.1825361,7.19828865 48.1825361,7.35129423 C48.1825361,7.5042998 47.9578938,7.58080144 47.5086025,7.58080144 L45.9533709,7.58080144 L45.9533709,17.5516149 C45.9533709,17.7896236 46.1952933,17.9086261 46.6791456,17.9086261 C47.4222044,17.8916255 47.8282886,17.9256262 47.8974104,18.0106293 C47.9146908,18.0276299 47.9233309,18.0616307 47.9233309,18.1126325 C47.9233309,18.2316369 47.8196498,18.2911381 47.6122846,18.2911381 C47.5086019,18.2911381 47.422201,18.282638 47.3530793,18.2656373 L45.2275961,18.2401365 L42.4022587,18.2911381 C42.0912108,18.2911381 41.9356892,18.2316369 41.9356892,18.1126325 C41.9356892,17.9766276 42.0566505,17.9086261 42.2985766,17.9086261 C43.1625985,17.9086261 43.6378034,17.857625 43.7242056,17.7556213 C43.7587664,17.7216201 43.7760466,17.670619 43.7760466,17.6026165 L43.8019671,17.2711061 L43.8019671,7.58080144 C43.1625909,7.58080144 42.7910671,7.57230126 42.6873845,7.55530064 C42.5837019,7.53830002 42.5318613,7.47029856 42.5318613,7.35129423 C42.5318613,7.19828865 42.6873829,7.12178701 42.9984308,7.12178701 L43.8278877,7.12178701 C43.8970094,4.96270834 44.1907724,3.40717499 44.7091856,2.4551403 C45.5040857,0.993087028 46.696418,0.262071356 48.2862183,0.262071356 C49.0465575,0.262071356 49.6686439,0.440575183 50.1524962,0.797588192 C50.6363484,1.1546012 50.8782709,1.62211122 50.8782709,2.20013228 L50.8782709,2.20013228 Z M56.2178994,16.7355892 C56.2178994,16.8885948 56.0018972,17.1606007 55.5698863,17.5516149 C54.8268274,18.2146391 53.9455384,18.5461462 52.9259925,18.5461462 C51.9755685,18.5461462 51.2584411,18.3081411 50.7745888,17.8321237 C50.4981018,17.5601138 50.3598604,16.7610967 50.3598604,15.4350484 L50.3598604,7.83580946 C50.34258,7.66580326 50.247539,7.57230126 50.0747346,7.55530064 L49.0897546,7.55530064 C48.709585,7.55530064 48.519503,7.49579936 48.519503,7.37679503 C48.519503,7.25779069 48.614544,7.18978923 48.8046288,7.17278861 C50.1525029,7.05378428 51.2065938,6.40777043 51.966933,5.23472769 C52.0706157,5.08172211 52.200217,5.00522047 52.3557409,5.00522047 C52.476704,5.00522047 52.5371846,5.06472175 52.5371846,5.18372608 L52.5371846,5.28572929 C52.5199042,5.37073239 52.5112641,5.51523548 52.5112641,5.71924292 C52.5112641,6.43326893 52.5458245,6.89227877 52.6149462,7.09628621 C52.7704702,7.13028745 53.0296728,7.14728781 53.392562,7.14728781 C54.3429861,7.14728781 54.9737126,7.1047869 55.2847605,7.0197838 C55.3538822,7.00278318 55.4143628,6.994283 55.4662042,6.994283 C55.6044477,6.994283 55.6735684,7.07078464 55.6735684,7.22379022 C55.6735684,7.47879951 54.9737211,7.60630224 53.5740057,7.60630224 C53.3320796,7.60630224 52.9778359,7.59780206 52.5112641,7.58080144 L52.5112641,12.2984498 C52.5112641,14.6785365 52.5717447,16.1703185 52.6927078,16.7738404 C52.8136709,17.3773624 53.211115,17.6791189 53.885052,17.6791189 C54.4553065,17.6791189 55.0946731,17.3646122 55.803171,16.7355892 C55.8722928,16.6505861 55.9500536,16.6080852 56.0364557,16.6080852 C56.1574188,16.6080852 56.2178994,16.6505861 56.2178994,16.7355892 L56.2178994,16.7355892 Z" id="aft" fill="#2F3639"></path>
                            <path d="M55.7895642,0.0482382388 L57.7266162,0.0482382388 L57.7266162,0.404317915 L56.9658709,0.404317915 L56.9658709,2.40232054 L56.5469582,2.40232054 L56.5469582,0.404317915 L55.7895642,0.404317915 L55.7895642,0.0482382388 Z M57.9980715,0.0482382388 L58.5879005,0.0482382388 L59.2481067,1.89128027 L59.2548093,1.89128027 L59.8982591,0.0482382388 L60.4813855,0.0482382388 L60.4813855,2.40232054 L60.0825807,2.40232054 L60.0825807,0.585654787 L60.0758781,0.585654787 L59.4123205,2.40232054 L59.0671365,2.40232054 L58.4035789,0.585654787 L58.3968763,0.585654787 L58.3968763,2.40232054 L57.9980715,2.40232054 L57.9980715,0.0482382388 Z" id="TM" fill="#2F3639"></path>
                            <g id="Group" transform="translate(0.000000, 0.544872)" fill="#A88D61">
                                <g id="W">
                                    <path d="M25.8507017,17.8471528 L27.3489238,13.7260764 C28.0240846,11.8994491 28.5304476,10.5354296 28.868028,9.6339772 C29.5431889,7.71246015 30.0374956,6.28913555 30.3509632,5.36396067 C30.7849951,4.24900634 31.1105142,3.41873365 31.3275302,2.8731177 C31.6892235,1.87677553 32.0147426,1.27779309 32.3040973,1.07615241 C32.5934519,0.874511735 33.2806589,0.749970831 34.3657388,0.702525966 C34.7274321,0.678803533 34.908276,0.572054188 34.908276,0.382274727 C34.908276,0.192495266 34.7877134,0.0976069583 34.5465845,0.0976069583 L34.2572313,0.0976069583 C33.6302963,0.168774256 32.701964,0.192496333 31.4722068,0.1687739 L28.614844,0.0976069583 C28.2531507,0.0976069583 28.0723067,0.192495266 28.0723067,0.382274727 C28.0723067,0.572054188 28.2652069,0.666942495 28.6510131,0.666942495 C29.3502869,0.666942495 29.7843123,0.690664572 29.9531025,0.738109437 C30.4353603,0.8567216 30.6764855,1.15324756 30.6764855,1.62769621 C30.6764855,2.1258673 30.3509664,3.21708283 29.6999185,4.90137555 C29.3141123,5.89771772 28.843918,7.19057091 28.2893216,8.77997389 C27.4212577,11.1759396 26.7943321,12.8720681 26.4085259,13.8684103 C25.9744939,15.0545319 25.564581,16.1338864 25.1787748,17.1065061 C23.3220825,12.4806318 21.9717811,9.10023581 21.12783,6.96521687 C22.4299259,3.97619036 23.2859206,2.16145148 23.6958396,1.5209458 C23.9610814,0.927884984 24.9496949,0.643220062 26.6617099,0.666942495 C27.0234032,0.666942495 27.2042472,0.572054188 27.2042472,0.382274727 C27.2042472,0.1450504 26.9751782,0.0383010546 26.5170333,0.0620234873 L13.8940001,0.0976069583 C13.1465006,0.0976069583 12.6099969,0.0857459199 12.2844729,0.0620234873 C11.958949,0.0383010546 11.8323582,0.0264400162 11.9046969,0.0264400162 C11.446552,0.0264400162 11.217483,0.133189362 11.217483,0.346691256 C11.217483,0.536470717 11.3380457,0.643220062 11.5791745,0.666942495 C12.4231256,0.666942495 12.9777136,0.77962236 13.2429554,1.00498547 C13.5081972,1.23034858 13.8457725,1.88863621 14.2556916,2.97986811 C14.4244818,3.43059433 14.5450444,3.76270341 14.6173831,3.9762053 C14.9549635,4.85393531 15.2202013,5.50629242 15.4131044,5.93329621 C16.4499585,8.63765353 17.1492218,10.5116976 17.5109151,11.5554846 L14.9790746,17.24884 L11.2536522,7.7836367 C10.1685723,4.91322235 9.36080266,2.75451336 8.83031915,1.30744497 C8.78209338,1.18883281 8.75798085,1.08208346 8.75798085,0.987193734 C8.75798085,0.773691841 8.96293732,0.666942495 9.37285639,0.666942495 C10.1444688,0.690664928 10.5302692,0.59577662 10.5302692,0.382274727 C10.5302692,0.1450504 10.3735378,0.0264400162 10.0600702,0.0264400162 L9.55370214,0.0264400162 C9.2643475,0.0501624489 9.05939103,0.0620234873 8.9388266,0.0620234873 L5.28574249,0.133190429 L3.9113148,0.133190429 C3.30849263,0.133190429 2.58511687,0.121329391 1.74116583,0.0976069583 C0.921327668,0.0976069583 0.523471001,0.0976069583 0.547583888,0.0976069583 C0.21000347,0.0976069583 0.0412157935,0.192495266 0.0412157935,0.382274727 C0.0412157935,0.59577662 0.354678622,0.702525966 0.981613684,0.702525966 C1.60854874,0.702525966 2.03051794,0.738109081 2.24753392,0.809276379 C2.63334011,0.90416611 2.91063415,1.16510895 3.07942436,1.59211274 C4.74321356,5.53003656 6.10557124,8.92229354 7.16653827,11.7689855 L9.53679481,17.8471528 L15.5878455,17.8471528 C16.3201304,16.1917337 17.1540547,14.3791811 18.0896215,12.4094879 L19.3193725,15.3273326 C19.6923414,16.2140788 20.0365143,17.0540182 20.3518921,17.8471528 L25.8507017,17.8471528 Z M22.5022577,1.62769621 C22.5022577,0.987190532 21.9235571,0.666942495 20.7661385,0.666942495 C19.5846071,0.666942495 18.9938502,0.880441186 18.9938502,1.30744497 C18.9938502,1.90050579 19.5725508,3.41871871 20.7299694,5.86212927 C21.9115008,3.44244114 22.5022577,2.03097757 22.5022577,1.62769621 Z" id="Combined-Shape"></path>
                                </g>
                            </g>
                        </g>
                        <g id="Subtext" transform="translate(48.282041, 22.274169)" fill="#BBA37D">
                            <path d="M9.62156161,3.04784144 C9.62156161,3.14975007 9.5840905,3.23664407 9.50914714,3.30852605 C9.43420379,3.38040803 9.34492076,3.41634848 9.24129538,3.41634848 C9.13767,3.41634848 9.04838698,3.38040803 8.97344362,3.30852605 C8.89850027,3.23664407 8.86102915,3.14975007 8.86102915,3.04784144 C8.86102915,2.94593281 8.89850027,2.85812892 8.97344362,2.78442715 C9.04838698,2.71072537 9.13767,2.67387503 9.24129538,2.67387503 C9.34492076,2.67387503 9.43420379,2.71072537 9.50914714,2.78442715 C9.5840905,2.85812892 9.62156161,2.94593281 9.62156161,3.04784144 L9.62156161,3.04784144 Z" id="Path"></path>
                            <path d="M8.3530823,2.72846867 C8.2383542,2.94320471 8.08476889,3.11426306 7.89232176,3.24164885 C7.69987463,3.36903463 7.47874879,3.43272657 7.22893761,3.43272657 C7.00873368,3.43272657 6.81582683,3.39451141 6.65021127,3.31807994 C6.48459571,3.24164846 6.34812683,3.13792159 6.24080055,3.00689621 C6.13347426,2.87587083 6.05344336,2.72301018 6.00070545,2.54830967 C5.94796753,2.37360916 5.92159897,2.18890254 5.92159897,1.99418426 C5.92159897,1.81948376 5.94981796,1.64797047 6.00625678,1.47963925 C6.0626956,1.31130803 6.14550214,1.1598122 6.25467888,1.02514723 C6.36015471,0.895941642 6.49107231,0.791759828 6.6474356,0.71259866 C6.8037989,0.633437492 6.9791267,0.593857502 7.17342429,0.593857502 C7.37327323,0.593857502 7.54443758,0.624793587 7.68692248,0.686666683 C7.82940738,0.74853978 7.94505896,0.83315907 8.03388072,0.940527091 C8.11900156,1.04243572 8.18237863,1.16254052 8.22401383,1.30084509 C8.26564903,1.43914966 8.28646631,1.58928066 8.28646631,1.75124258 L8.28646631,1.93140158 L6.47395648,1.93140158 C6.47395648,2.10792189 6.49107292,2.26806162 6.5253063,2.41182558 C6.55953969,2.55558954 6.61366463,2.68206353 6.68768276,2.79125135 C6.75985043,2.89679957 6.85422213,2.98005404 6.97080068,3.04101723 C7.08737923,3.10198043 7.22616114,3.13246158 7.38715056,3.13246158 C7.5518409,3.13246158 7.69386105,3.09470135 7.81321528,3.01917978 C7.93256951,2.94365821 8.04775849,2.80763042 8.15878568,2.61109235 L8.3530823,2.72846867 Z M7.73966013,1.70210831 C7.73966013,1.60019968 7.73087061,1.4910135 7.71329131,1.3745465 C7.695712,1.25807949 7.66749301,1.16072181 7.6286335,1.08247054 C7.58607307,0.998759884 7.52778467,0.930518521 7.45376654,0.877744409 C7.37974842,0.824970297 7.28445151,0.798583637 7.16787296,0.798583637 C6.97357537,0.798583637 6.81212575,0.87819856 6.68351926,1.03743079 C6.55491276,1.19666303 6.4850592,1.41821999 6.47395648,1.70210831 L7.73966013,1.70210831 Z" id="Combined-Shape"></path>
                            <path d="M5.60239739,3.36175485 L4.26730209,3.36175485 L4.26730209,3.18159585 C4.30986252,3.17795625 4.35288491,3.17431671 4.39637056,3.17067712 C4.43985621,3.16703753 4.47825254,3.15975845 4.51156069,3.14883967 C4.56337338,3.13246149 4.60176971,3.10380012 4.62675083,3.06285469 C4.65173195,3.02190926 4.66422232,2.96868099 4.66422232,2.9031683 L4.66422232,1.51376027 C4.66422232,1.32450138 4.62027471,1.17846487 4.53237819,1.07564634 C4.44448166,0.972827811 4.33484395,0.921419318 4.20346178,0.921419318 C4.11278957,0.921419318 4.02767,0.935067591 3.94810052,0.962364545 C3.86853103,0.9896615 3.79543922,1.02787666 3.72882291,1.07701118 C3.67515977,1.11704671 3.63028695,1.16026624 3.59420311,1.20667107 C3.55811928,1.25307589 3.5308255,1.29174599 3.51232097,1.32268254 L3.51232097,2.87587149 C3.51232097,2.93956438 3.52342352,2.99188276 3.54562896,3.03282819 C3.5678344,3.07377362 3.60576812,3.10516465 3.65943126,3.12700221 C3.70199169,3.14338038 3.74038801,3.15566383 3.7746214,3.16385292 C3.80885478,3.172042 3.8537276,3.17795625 3.90924119,3.18159585 L3.90924119,3.36175485 L2.60190256,3.36175485 L2.60190256,3.18159585 C2.64446298,3.17795625 2.68563494,3.17431671 2.72541969,3.17067712 C2.76520443,3.16703753 2.80175033,3.15975845 2.83505849,3.14883967 C2.88687118,3.13246149 2.92526751,3.10380012 2.95024863,3.06285469 C2.97522974,3.02190926 2.98772012,2.96868099 2.98772012,2.9031683 L2.98772012,1.51376027 C2.98772012,1.32450138 2.94377251,1.17846487 2.85587599,1.07564634 C2.76797946,0.972827811 2.65834175,0.921419318 2.52695958,0.921419318 C2.43628737,0.921419318 2.3511678,0.935522533 2.27159831,0.963729386 C2.19202883,0.991936239 2.11893702,1.03060634 2.05232071,1.07974086 C1.99865757,1.1197764 1.95332214,1.16481569 1.91631308,1.21486011 C1.87930402,1.26490453 1.85154763,1.30266475 1.8330431,1.32814191 L1.8330431,2.87041212 C1.8330431,2.93228522 1.84599608,2.98414865 1.87190242,3.02600398 C1.89780877,3.06785932 1.9366677,3.09970528 1.98848039,3.12154285 C2.02733991,3.13974082 2.06712406,3.15338909 2.10783403,3.16248807 C2.148544,3.17158706 2.19387942,3.17795625 2.24384165,3.18159585 L2.24384165,3.36175485 L0.91429769,3.36175485 L0.91429769,3.18159585 C0.956858113,3.17795625 1.00080572,3.17431671 1.04614182,3.17067712 C1.09147792,3.16703753 1.13079946,3.15975845 1.16410762,3.14883967 C1.21592031,3.13246149 1.25431664,3.10380012 1.27929776,3.06285469 C1.30427887,3.02190926 1.31676924,2.96868099 1.31676924,2.9031683 L1.31676924,1.22987336 C1.31676924,1.17163986 1.30335366,1.11932148 1.27652209,1.07291666 C1.24969052,1.02651184 1.2122194,0.986931845 1.16410762,0.9541755 C1.12894901,0.932337936 1.08546401,0.914595182 1.03365132,0.900946705 C0.981838634,0.887298227 0.928176297,0.878654321 0.872662701,0.875014727 L0.872662701,0.697585411 L1.78863245,0.637532411 L1.82749177,0.675747956 L1.82749177,1.06063309 L1.84692143,1.06063309 C1.89318276,1.01513817 1.94962074,0.96145496 2.01623705,0.899581864 C2.08285337,0.837708767 2.14484262,0.787665101 2.20220667,0.749449365 C2.26697253,0.705774238 2.34792864,0.669378844 2.44507743,0.640262093 C2.54222622,0.611145341 2.64723787,0.596587184 2.76011551,0.596587184 C2.93775902,0.596587184 3.09041912,0.643446253 3.21810038,0.737165797 C3.34578165,0.83088534 3.43737771,0.944166002 3.49289131,1.07701118 C3.55950762,1.01331829 3.61825863,0.95736037 3.66914609,0.90913575 C3.72003356,0.86091113 3.78711148,0.809502637 3.87038187,0.754908728 C3.94069909,0.707594007 4.02350563,0.669378844 4.11880397,0.640262093 C4.21410231,0.611145341 4.32003916,0.596587184 4.43661771,0.596587184 C4.66792436,0.596587184 4.85111648,0.67119774 4.98619956,0.820421092 C5.12128264,0.969644443 5.18882317,1.19893542 5.18882317,1.5083009 L5.18882317,2.87587149 C5.18882317,2.93956438 5.19992572,2.99188276 5.22213116,3.03282819 C5.2443366,3.07377362 5.28227032,3.10516465 5.33593346,3.12700221 C5.37849389,3.14338038 5.42059107,3.15566383 5.46222626,3.16385292 C5.50386146,3.172042 5.5505847,3.17795625 5.60239739,3.18159585 L5.60239739,3.36175485 Z" id="Path"></path>
                        </g>
                    </g>
                    <path d="M79.9538793,12.4891144 C80.0118298,12.546378 80.0393559,12.622251 80.0364583,12.7167358 C80.0335608,12.8112207 80.0089322,12.9128619 79.9625718,13.0216626 C79.9162115,13.1304634 79.8466719,13.2435571 79.7539511,13.3609474 C79.6612304,13.4783376 79.5511261,13.5914314 79.4236351,13.7002321 L79.4323276,13.6916426 C79.4265325,13.697369 79.4207376,13.7016637 79.4149425,13.7045269 C79.4091475,13.70739 79.4033525,13.7116847 79.3975575,13.7174111 C79.3685822,13.7460429 79.3352612,13.7761058 79.2975934,13.8076007 C79.2599256,13.8390957 79.2237071,13.8691586 79.1889368,13.8977903 C79.1309863,13.9436012 79.0469594,14.0094532 78.9368534,14.0953485 C78.8267475,14.1812438 78.6659374,14.3100849 78.4544181,14.4818755 C78.2428988,14.6536661 77.9661894,14.8798536 77.6242816,15.160445 C77.2823738,15.4410363 76.8463029,15.8017911 76.316056,16.2427203 C75.7858091,16.6836496 75.1483634,17.2161924 74.4036997,17.840365 C73.659036,18.4645375 72.7796507,19.2060891 71.7655172,20.0650422 C71.7539271,20.0879476 71.7307473,20.1223052 71.695977,20.168116 C71.690182,20.1795687 71.6829383,20.1910213 71.6742457,20.202474 C71.6655531,20.2139267 71.6583094,20.2253792 71.6525144,20.2368319 L71.6525144,20.2282424 C71.5829738,20.3484958 71.5192292,20.4658843 71.4612787,20.5804114 C71.2410669,20.9526244 71.0237559,21.2761585 70.8093391,21.5510235 C70.681848,21.7113613 70.5442177,21.8631074 70.396444,22.0062663 C70.2486702,22.1494251 70.0820651,22.2782661 69.8966236,22.3927932 C69.7865176,22.4557831 69.6706184,22.5073195 69.5489224,22.547404 C69.4272264,22.5874884 69.2997373,22.6075304 69.1664511,22.6075304 C69.0853205,22.6075304 69.0085372,22.6032357 68.9360991,22.5946462 C68.863661,22.5860566 68.7955702,22.5674463 68.7318247,22.5388145 C68.7202346,22.5388145 68.7115422,22.5359514 68.7057471,22.530225 C68.6999521,22.5244986 68.6912596,22.5187724 68.6796695,22.513046 L68.6448994,22.495867 C68.6333093,22.4901407 68.6159244,22.4801197 68.5927443,22.4658038 C68.5695641,22.451488 68.5492817,22.4371723 68.5318966,22.4228564 C68.5145114,22.4085405 68.5029215,22.4013827 68.4971264,22.4013827 C68.4913314,22.4013827 68.4971263,22.4099721 68.5145115,22.4271512 C68.4681511,22.3985194 68.4319326,22.3598671 68.4058549,22.3111931 C68.3797772,22.2625191 68.3609435,22.1923723 68.3493534,22.1007506 C68.3435584,22.0606662 68.3508021,22.014856 68.3710848,21.9633188 C68.3913674,21.9117817 68.4174448,21.8602453 68.4493175,21.8087081 C68.4811903,21.7571709 68.5174088,21.7099292 68.5579741,21.6669815 C68.5985395,21.6240339 68.6420017,21.5911078 68.6883621,21.5682024 L68.6796695,21.5682024 C68.8013656,21.4651281 68.927406,21.3577605 69.0577945,21.2460967 C69.1881831,21.1344328 69.3200185,21.021339 69.4533046,20.9068119 C69.6387461,20.746474 69.8169412,20.5918648 69.9878951,20.4429796 C70.158849,20.2940944 70.3283517,20.1480746 70.496408,20.0049158 C70.5253833,19.9820103 70.5500119,19.9605368 70.5702945,19.9404946 C70.5905772,19.9204524 70.6152058,19.8989789 70.644181,19.8760734 L71.0092672,19.5668519 C71.0788078,19.4351458 71.1425524,19.3063048 71.2005029,19.180325 C71.2584534,19.0543452 71.3193004,18.922641 71.383046,18.7852086 C71.5858727,18.3041949 71.7944913,17.7873992 72.008908,17.2348061 C72.2233248,16.682213 72.4261485,16.113881 72.6173851,15.5297929 C72.6173851,15.5183402 72.6202825,15.5097508 72.6260776,15.5040244 C72.6260776,15.5097508 72.6318725,15.4897089 72.6434626,15.443898 C72.5101765,15.524067 72.3797899,15.5985085 72.2522989,15.6672247 C72.1248078,15.7359409 71.9944212,15.8075193 71.8611351,15.8819619 C71.0324432,16.3228911 70.2921369,16.663604 69.640194,16.9041109 C68.9882511,17.1446177 68.3812289,17.3106795 67.8191092,17.4023011 L67.8278017,17.4023011 C67.5206642,17.4595647 67.1845564,17.488196 66.8194684,17.488196 C66.7035674,17.488196 66.5891169,17.4853329 66.4761135,17.4796065 C66.3631101,17.4738802 66.257352,17.4624276 66.1588362,17.4452486 C65.898059,17.3994377 65.6285933,17.3164069 65.350431,17.1961534 C65.0722687,17.0759 64.8230854,16.9098382 64.6028736,16.6979632 C64.3826617,16.4918144 64.2001205,16.2398587 64.0552443,15.9420883 C63.910368,15.6443179 63.8060587,15.3236469 63.7423132,14.9800657 L63.7423132,14.9886552 C63.719133,14.8684018 63.7031969,14.7352661 63.6945043,14.5892441 C63.6858117,14.443222 63.6814655,14.2957707 63.6814655,14.1468855 C63.6814655,13.9063786 63.6945042,13.6687385 63.7205819,13.433958 C63.7466596,13.1991775 63.7828781,12.9586743 63.8292385,12.7124411 C63.9103692,12.2944173 64.0320634,11.8549263 64.1943247,11.3939548 C64.3565861,10.9329834 64.5652047,10.4362296 64.8201868,9.90367877 C65.0693739,9.38830696 65.3721606,8.85433251 65.728556,8.30173941 C66.0849515,7.7491463 66.5268173,7.18367738 67.0541667,6.60531568 C67.5931061,6.01550127 68.1653586,5.50729503 68.7709411,5.08068169 C69.3765236,4.65406836 70.0038282,4.33769208 70.6528736,4.13154336 C71.191813,3.95975275 71.722052,3.87385874 72.2436063,3.87385874 C72.3073519,3.87385874 72.3710964,3.87529031 72.434842,3.87815348 C72.4985875,3.88101666 72.5623321,3.88531136 72.6260776,3.89103771 C72.799929,3.91394313 72.9737779,3.95116387 73.1476293,4.00270105 C73.3214808,4.05423823 73.4924321,4.13726911 73.6604885,4.25179618 C73.840135,4.37777595 73.9806628,4.53381674 74.0820761,4.71992323 C74.1834895,4.90602972 74.2399904,5.09070185 74.2515805,5.27394516 C74.2631706,5.42283035 74.2617218,5.57743957 74.2472342,5.73777747 C74.2327466,5.89811536 74.2052205,6.04699832 74.1646552,6.1844308 C74.1298849,6.31613693 74.0907689,6.44497795 74.047306,6.57095773 C74.0038432,6.6969375 73.9589322,6.81718912 73.9125718,6.93171619 C73.814056,7.15504398 73.7126442,7.36548431 73.6083333,7.5630435 C73.5040225,7.7606027 73.3997132,7.94813796 73.2954023,8.12565492 C73.0751905,8.48641518 72.8593282,8.81997027 72.6478089,9.12633018 C72.4362897,9.43269009 72.2407097,9.70611936 72.0610632,9.94662621 C71.6959752,10.4390926 71.3642137,10.8628364 71.0657687,11.2178703 C70.7673237,11.5729042 70.5195891,11.8649439 70.3225575,12.093998 C70.1545011,12.3001467 70.009627,12.4705032 69.887931,12.6050725 C69.766235,12.7396418 69.6735156,12.8384199 69.6097701,12.9014098 C69.4996642,13.0216632 69.3823162,13.1261676 69.2577227,13.2149261 C69.1331292,13.3036846 69.0143325,13.3695367 68.901329,13.4124843 C68.7883256,13.455432 68.6840163,13.4769055 68.588398,13.4769055 C68.4927797,13.4769055 68.4188939,13.4511373 68.3667385,13.3996001 L68.375431,13.3996001 C68.3116855,13.3423365 68.275467,13.2678951 68.2667744,13.1762734 C68.2580819,13.0846518 68.2711205,12.9815789 68.3058908,12.8670519 C68.3406611,12.7525248 68.397162,12.6337047 68.4753951,12.5105881 C68.5536283,12.3874715 68.6448989,12.2657884 68.7492098,12.1455349 C68.77239,12.1169032 68.7984673,12.0882718 68.8274425,12.0596401 C68.8564178,12.0310083 68.8882901,11.9995138 68.9230603,11.9651557 C68.9636257,11.9193449 69.0099854,11.8678085 69.0621408,11.8105449 C69.1142962,11.7532814 69.1751433,11.6874293 69.2446839,11.6129867 L69.3663793,11.5013234 C69.3779694,11.4898707 69.3852131,11.4812813 69.3881106,11.4755549 C69.3910082,11.4698286 69.3982519,11.4612392 69.409842,11.4497865 C69.5431281,11.3009013 69.7111819,11.1147976 69.9140086,10.8914698 C70.1168353,10.668142 70.3544287,10.3932812 70.626796,10.066879 C70.8006474,9.86073031 70.9846374,9.63454274 71.1787716,9.38830954 C71.3729057,9.14207634 71.582973,8.86435236 71.8089799,8.55512928 C71.9190858,8.40051774 72.0320875,8.23875068 72.1479885,8.06982325 C72.2638895,7.90089582 72.3797887,7.71908683 72.4956897,7.52439081 C72.6057956,7.3411475 72.7130024,7.14788597 72.8173132,6.94460042 C72.9216241,6.74131488 73.0230359,6.51083261 73.1215517,6.2531467 C73.1679121,6.13861963 73.2070281,6.02552585 73.2389009,5.91386196 C73.2707736,5.80219806 73.2896073,5.68910428 73.2954023,5.57457721 C73.3069924,5.4772292 73.3026462,5.38274579 73.2823635,5.29112413 C73.2620808,5.19950248 73.2200674,5.12219786 73.1563218,5.05920798 L73.1650144,5.05920798 C73.1012688,4.99049174 73.0143444,4.93752376 72.9042385,4.90030246 C72.7941326,4.86308117 72.6753359,4.83588139 72.5478448,4.81870233 C72.4840993,4.80724963 72.4203547,4.80152336 72.3566092,4.80152336 L72.1740661,4.80152336 C72.0987305,4.80152336 72.0103573,4.80438649 71.908944,4.81011285 C71.8075306,4.8158392 71.710465,4.8244286 71.6177443,4.83588131 C71.3048117,4.8988712 70.9658064,4.99478618 70.6007184,5.12362913 C70.2356304,5.25247208 69.9053176,5.40564974 69.6097701,5.5831667 C69.2968375,5.77213636 68.9795634,6.00261863 68.6579382,6.27462042 C68.336313,6.54662221 68.0190389,6.84581969 67.7061063,7.17222183 C67.1439867,7.78494165 66.6716973,8.39765228 66.2892241,9.0103721 C65.906751,9.62309192 65.5938231,10.2043081 65.350431,10.754038 C65.107039,11.3094943 64.9216003,11.8363109 64.7941092,12.3345037 C64.6666181,12.8326964 64.5883862,13.3051135 64.5594109,13.7517691 C64.5536159,13.8147589 64.5507184,13.8720216 64.5507184,13.9235588 L64.5507184,14.0953485 C64.5507184,14.4446561 64.5883856,14.7638955 64.6637213,15.0530764 C64.7390569,15.3422572 64.8520586,15.5899183 65.0027299,15.796067 C65.0954507,15.9105941 65.1925163,16.0093722 65.2939296,16.0924043 C65.3953429,16.1754364 65.501101,16.2484464 65.6112069,16.3114362 L65.6025144,16.3028468 C65.7184153,16.3601103 65.8357633,16.4030573 65.9545618,16.4316891 C66.0733603,16.4603208 66.1994007,16.4832259 66.3326868,16.500405 C66.3964323,16.5118577 66.4572794,16.5175839 66.5152299,16.5175839 L66.6890805,16.5175839 C66.874522,16.5175839 67.0599608,16.5046998 67.2454023,16.4789312 C67.4308438,16.4531627 67.624975,16.4202366 67.8278017,16.3801521 L67.8191092,16.3887416 C68.039321,16.3372044 68.2798119,16.2684892 68.5405891,16.1825939 C68.8013662,16.0966986 69.0882168,15.9907627 69.4011494,15.8647829 C69.714082,15.7388031 70.0255612,15.6028043 70.3355963,15.4567823 C70.6456313,15.3107603 70.9658029,15.1518563 71.2961207,14.9800657 C71.4757672,14.8884441 71.6539622,14.7953922 71.8307112,14.7009074 C72.0074602,14.6064226 72.1972452,14.5019182 72.4000718,14.3873911 C72.4116619,14.3816648 72.4218031,14.3730754 72.4304957,14.3616226 C72.4391883,14.3501699 72.4493294,14.3415805 72.4609195,14.3358542 C72.4840997,14.3244015 72.5116258,14.3086542 72.5434986,14.288612 C72.5753713,14.2685698 72.6086924,14.2470963 72.6434626,14.2241908 L72.6521552,14.2241908 C72.7159007,14.1841064 72.7796453,14.1468856 72.8433908,14.1125275 C72.9071363,14.0781694 72.9708809,14.0409487 73.0346264,14.0008642 C73.0404215,13.9951378 73.0607038,13.9808222 73.0954741,13.9579167 L73.0867816,13.9665062 C73.0925767,13.9607799 73.1012691,13.9550536 73.1128592,13.9493273 C73.1244493,13.9436009 73.131693,13.9393062 73.1345905,13.936443 C73.137488,13.9335798 73.1447317,13.9292851 73.1563218,13.9235588 L73.2606322,13.8720219 C73.2664272,13.8662955 73.2722222,13.8620008 73.2780172,13.8591376 C73.2838123,13.8562745 73.2896073,13.8519798 73.2954023,13.8462534 C73.498229,13.7889899 73.6735266,13.7460429 73.8213003,13.7174111 C73.969074,13.6887793 74.0791783,13.7016634 74.1516164,13.7560638 C74.2240545,13.8104642 74.2559268,13.9221264 74.2472342,14.0910538 C74.2385416,14.2599812 74.1762458,14.511937 74.0603448,14.8469287 C73.9444439,15.1819203 73.7734925,15.6156851 73.5474856,16.148236 C73.3214788,16.6807869 73.0288332,17.3393076 72.6695402,18.123818 C73.4750519,17.4252029 74.1603061,16.8296711 74.7253233,16.3372047 C75.2903405,15.8447383 75.7655273,15.4267208 76.150898,15.0831396 C76.5362687,14.7395584 76.8506453,14.4575397 77.0940374,14.2370751 C77.3374294,14.0166105 77.5431505,13.8290752 77.7112069,13.6744637 C77.844493,13.5599366 77.9690847,13.4525691 78.0849856,13.3523579 C78.2008866,13.2521467 78.3196833,13.1505055 78.4413793,13.0474311 C78.4761496,13.0187993 78.5152656,12.9844417 78.5587284,12.9443573 C78.6021913,12.9042728 78.6413073,12.8699152 78.6760776,12.8412834 C78.7977736,12.738209 78.9223653,12.6508835 79.0498563,12.579304 C79.1773474,12.5077246 79.3004903,12.4561882 79.4192888,12.4246933 C79.5380873,12.3931983 79.6438453,12.3831774 79.7365661,12.3946301 C79.8292869,12.4060828 79.9017239,12.4404404 79.9538793,12.4977039 L79.9538793,12.4891144 Z M96.0089799,12.5664198 C96.0785205,12.715305 96.0727255,12.8656195 95.9915948,13.0173679 C95.9104642,13.1691163 95.7916674,13.2850732 95.6352011,13.3652421 C95.6004309,13.3824212 95.5453787,13.3967369 95.4700431,13.4081896 C95.4642481,13.4081896 95.4613506,13.4096211 95.4613506,13.4124843 C95.4613506,13.4153475 95.4584531,13.416779 95.452658,13.416779 C95.4352729,13.4225054 95.4077468,13.4296632 95.370079,13.4382528 C95.3324112,13.4468423 95.2802566,13.4625895 95.2136135,13.4854949 C95.1469705,13.5084004 95.060046,13.5398948 94.9528376,13.5799793 C94.8456293,13.6200638 94.7108964,13.6687371 94.5486351,13.7260006 C94.2936529,13.8176222 93.9705839,13.9364423 93.5794181,14.0824643 C93.1882524,14.2284863 92.6942319,14.4102953 92.097342,14.6278967 C91.500452,14.8454982 90.7934667,15.0988855 89.9763649,15.3880664 C89.1592632,15.6772472 88.1915046,15.9907604 87.0730603,16.3286152 C85.9372309,16.6664701 84.8970354,16.9313099 83.9524425,17.1231428 C83.0078497,17.3149756 82.1386055,17.41948 81.3446839,17.4366591 C80.9390305,17.4423854 80.5507681,17.4151857 80.1798851,17.3550589 C79.809002,17.2949322 79.4670993,17.1789753 79.1541667,17.0071847 C78.8180539,16.8124887 78.5630756,16.5719855 78.3892241,16.2856678 C78.3080935,16.1425089 78.2429002,15.993626 78.1936422,15.8390144 C78.1443843,15.6844029 78.1139608,15.5469725 78.1023707,15.4267191 C78.0849855,15.1690332 78.0951267,14.9342562 78.1327945,14.7223811 C78.1704624,14.510506 78.2095783,14.3186761 78.2501437,14.1468855 C78.3138892,13.9464631 78.3645951,13.7875592 78.4022629,13.6701689 C78.4399307,13.5527787 78.4761493,13.4540006 78.5109195,13.3738316 C78.5746651,13.2192201 78.6369609,13.0832212 78.6978089,12.965831 C78.7586569,12.8484407 78.8035679,12.7668414 78.8325431,12.7210306 C78.8789035,12.646588 78.9368531,12.583599 79.0063937,12.5320619 C79.0759343,12.4805247 79.1483713,12.4433039 79.2237069,12.4203985 C79.2990425,12.3974931 79.3758258,12.3917668 79.4540589,12.4032196 C79.5322921,12.4146723 79.6061778,12.4404405 79.6757184,12.4805249 C79.7916194,12.5664202 79.8669538,12.6838087 79.9017241,12.8326939 C79.9364944,12.9815791 79.9191095,13.1218727 79.849569,13.2535788 L79.849569,13.2449893 C79.8205937,13.3137055 79.8032088,13.3509263 79.7974138,13.3566526 C79.7916187,13.362379 79.7858238,13.3709684 79.7800287,13.3824211 C79.7626436,13.4110529 79.7394637,13.4454105 79.7104885,13.4854949 C79.6815133,13.5255794 79.6467435,13.5771158 79.6061782,13.6401057 C79.5772029,13.6801902 79.5453306,13.7345897 79.5105603,13.803306 C79.4757901,13.8720222 79.4352253,13.9550531 79.3888649,14.0524011 L79.3888649,14.0438116 C79.3425046,14.146886 79.2946961,14.2614113 79.2454382,14.3873911 C79.1961803,14.5133709 79.1541668,14.6536644 79.1193966,14.808276 L79.1280891,14.808276 C79.1107039,14.8884449 79.0962165,14.9714758 79.0846264,15.0573711 C79.0730363,15.1432664 79.0672414,15.2320236 79.0672414,15.3236452 C79.0730364,15.4152669 79.0846263,15.5054556 79.1020115,15.5942141 C79.1193966,15.6829725 79.1512689,15.7645719 79.1976293,15.8390144 C79.2439897,15.9191834 79.3106317,15.9979196 79.3975575,16.0752253 C79.4844832,16.1525311 79.585895,16.2226779 79.701796,16.2856678 C79.9683682,16.4173739 80.2726037,16.5004048 80.6145115,16.5347629 C80.8636986,16.569121 81.1215743,16.5862998 81.3881466,16.5862998 C81.6605138,16.5862998 81.9618518,16.569121 82.2921695,16.5347629 C82.6224873,16.5004048 82.9614925,16.4574578 83.3091954,16.4059206 C83.5583825,16.3658361 83.8263994,16.3157313 84.1132543,16.2556046 C84.4001092,16.1954779 84.6956522,16.1281942 84.9998922,16.0537516 C85.3041323,15.979309 85.6112652,15.9005729 85.9213003,15.8175407 C86.2313354,15.7345086 86.5341221,15.6500462 86.8296695,15.5641509 C87.2874783,15.4267184 87.7380366,15.2835617 88.1813578,15.1346765 C88.6246789,14.9857913 89.0477111,14.8397715 89.450467,14.6966126 C89.8532228,14.5534538 90.2269978,14.417455 90.5718032,14.288612 C90.9166085,14.159769 91.2193952,14.0438121 91.4801724,13.9407378 C91.9901366,13.7403154 92.4450411,13.5556433 92.8448994,13.3867158 C93.2447577,13.2177884 93.5605831,13.0817896 93.7923851,12.9787152 L93.7836925,12.9787152 C94.0734449,12.8470091 94.2936535,12.7425047 94.4443247,12.6651989 C94.594996,12.5878931 94.7166901,12.5263358 94.8094109,12.4805249 C94.8789515,12.4461668 94.9426961,12.4161039 95.0006466,12.3903353 C95.058597,12.3645667 95.1223416,12.337367 95.1918822,12.3087352 C95.3599386,12.2457453 95.5221975,12.240019 95.6786638,12.2915562 C95.8351301,12.3430934 95.9452344,12.4347137 96.0089799,12.5664198 L96.0089799,12.5664198 Z M82.596408,8.39192902 C82.5442526,8.39765537 82.492098,8.40338164 82.4399425,8.409108 C82.3877871,8.41483435 82.3385299,8.42056062 82.2921695,8.42628697 C82.2573993,8.43201332 82.2226295,8.43630802 82.1878592,8.4391712 C82.1530889,8.44203438 82.1212166,8.44632908 82.0922414,8.45205543 C81.7677187,8.49213991 81.4953555,8.52220281 81.2751437,8.54224505 C81.0549318,8.56228728 80.8694931,8.57230825 80.7188218,8.57230825 C80.4406595,8.57230825 80.2479771,8.52936125 80.1407687,8.44346594 C80.0335603,8.35757064 79.9741619,8.22300336 79.9625718,8.03976004 C79.9509817,7.87369579 79.988649,7.73340224 80.0755747,7.61887517 C80.1625004,7.5043481 80.2639123,7.44708543 80.3798132,7.44708543 L80.4276221,7.44708543 C80.4479048,7.44708543 80.4754309,7.45281169 80.5102011,7.4642644 L80.5015086,7.45567491 C80.542074,7.46712762 80.6232034,7.47858016 80.7448994,7.49003286 C80.8665954,7.50148557 81.0781115,7.50721184 81.379454,7.50721184 C81.6286411,7.50721184 81.9444665,7.50148557 82.3269397,7.49003286 C82.7094128,7.47858016 83.1903946,7.45567508 83.7698994,7.42131696 C84.2161181,7.3926852 84.5826494,7.36548543 84.8695043,7.33971684 C85.1563592,7.31394825 85.3867089,7.28818004 85.5605603,7.26241145 C85.7344118,7.23664286 85.8619009,7.21373779 85.9430316,7.19369555 C86.0241623,7.17365332 86.0850094,7.15504295 86.1255747,7.13786389 C86.15455,7.12641118 86.1791785,7.11925334 86.1994612,7.11639017 C86.2197439,7.11352699 86.2443725,7.10923229 86.2733477,7.10350594 C86.3312982,7.08060052 86.3950428,7.06199015 86.4645833,7.04767427 C86.5341239,7.03335839 86.5993172,7.03478995 86.6601652,7.05196901 C86.7210132,7.06914807 86.7731679,7.10780038 86.8166307,7.16792709 C86.8600936,7.2280538 86.8876197,7.32396878 86.8992098,7.45567491 C86.9050048,7.59883375 86.8716838,7.71192753 86.7992457,7.79495966 C86.7268076,7.87799178 86.6138058,7.94527543 86.4602371,7.99681261 C86.3066683,8.04834979 86.1139858,8.08557053 85.8821839,8.10847594 C85.650382,8.13138136 85.3780188,8.15428643 85.0650862,8.17719184 L85.0737787,8.17719184 C85.0390084,8.18291819 85.0013412,8.18578133 84.9607759,8.18578133 C84.9202105,8.18578133 84.8796458,8.18864446 84.8390805,8.19437081 C84.543533,8.21727623 84.208874,8.24304443 83.8350934,8.2716762 C83.4613128,8.30030797 83.0484218,8.34039184 82.596408,8.39192902 L82.596408,8.39192902 Z M94.4617098,25.7598722 C94.4617098,25.7713249 94.460261,25.7827774 94.4573635,25.7942301 C94.454466,25.8056829 94.4501198,25.8257248 94.4443247,25.8543566 L94.4443247,25.8457671 C94.4095544,25.9889259 94.3631947,26.1234932 94.3052443,26.249473 C94.2472938,26.3754527 94.1835492,26.4828203 94.1140086,26.5715787 C94.044468,26.6603372 93.9691335,26.7261893 93.8880029,26.7691369 C93.8068722,26.8120846 93.7286402,26.8249687 93.6533046,26.8077896 C93.5316086,26.7734315 93.4359917,26.6932638 93.3664511,26.567284 C93.2969106,26.4413042 93.2621408,26.2838319 93.2621408,26.0948622 C93.2621408,26.026146 93.2650383,25.9502729 93.2708333,25.8672408 C93.2766284,25.7842087 93.2882183,25.6997462 93.3056034,25.6138509 C93.3171935,25.5680401 93.3302322,25.5179352 93.3447198,25.4635349 C93.3592074,25.4091345 93.3765923,25.3432825 93.396875,25.2659767 C93.4171577,25.1886709 93.4403375,25.0941875 93.4664152,24.9825236 C93.4924929,24.8708597 93.525814,24.7319977 93.5663793,24.5659335 C93.5953546,24.4685855 93.6214319,24.3597864 93.6446121,24.239533 C93.6677923,24.1192795 93.6938696,23.9904385 93.7228448,23.853006 L93.7228448,23.8615955 C93.7807953,23.4664771 93.8488861,22.9625656 93.9271193,22.3498458 C94.0053524,21.7371259 94.096623,20.966943 94.2009339,20.0392737 C94.3400151,18.8367395 94.4486706,17.820327 94.5269037,16.9900057 C94.6051369,16.1596845 94.665984,15.4739639 94.7094468,14.9328235 C94.7529097,14.3916831 94.7818845,13.9750972 94.7963721,13.6830532 C94.8108597,13.3910091 94.8210009,13.1848635 94.826796,13.0646101 C94.826796,13.047431 94.8282447,13.0288206 94.8311422,13.0087784 C94.8340398,12.9887362 94.8354885,12.9701258 94.8354885,12.9529467 L94.8354885,12.8842308 C94.8644637,12.741072 94.9397982,12.6265467 95.0614943,12.5406514 C95.1831903,12.454756 95.3251668,12.4203984 95.4874282,12.4375775 C95.6380994,12.4604829 95.7626911,12.5306297 95.8612069,12.6480199 C95.9597227,12.7654102 96.0031849,12.9071353 95.9915948,13.0731996 C95.9857998,13.0789259 95.9829023,13.0789259 95.9829023,13.0731996 C95.9829023,13.0846523 95.9814536,13.0975364 95.978556,13.1118523 C95.9756585,13.1261681 95.9742098,13.1361891 95.9742098,13.1419155 C95.9626197,13.199179 95.9408886,13.3008202 95.9090158,13.4468423 C95.877143,13.5928643 95.8336808,13.8319359 95.7786279,14.1640644 C95.7235749,14.4961929 95.6569329,14.9457049 95.5786997,15.5126139 C95.5004666,16.0795229 95.4062984,16.809622 95.2961925,17.7029332 C95.5221994,16.8611592 95.7844214,15.9292092 96.0828664,14.9070551 C96.3813114,13.884901 96.7391502,12.7525316 97.1563937,11.5099129 C97.4055807,10.7769396 97.6446229,10.0969454 97.8735273,9.46990967 C98.1024317,8.84287397 98.324089,8.26452094 98.5385057,7.73483325 C98.7529225,7.20514555 98.9600924,6.71698124 99.1600216,6.27032568 C99.3599507,5.82367011 99.5526332,5.41424198 99.7380747,5.042029 C99.9293113,4.65836332 100.116199,4.30619787 100.298743,3.98552207 C100.481287,3.66484628 100.660931,3.36851193 100.83768,3.09651015 C101.014429,2.82450836 101.191175,2.57684728 101.367924,2.3535195 C101.544673,2.13019172 101.725765,1.92118295 101.911207,1.72648693 C102.114034,1.52606456 102.32555,1.342824 102.545761,1.17675975 C102.765973,1.0106955 103.012259,0.878991346 103.284626,0.781643338 L103.275934,0.790232825 C103.37445,0.744421997 103.459925,0.712927526 103.532364,0.695748465 C103.604802,0.678569405 103.669995,0.664253736 103.727945,0.652801029 L103.71056,0.661390516 C103.774306,0.644211456 103.825012,0.632758921 103.86268,0.627032568 C103.900347,0.621306214 103.933668,0.615579947 103.962644,0.609853593 L104.058261,0.609853593 C104.127802,0.609853593 104.208932,0.62989553 104.301652,0.669980004 C104.400168,0.715790831 104.472605,0.778779774 104.518966,0.858948723 C104.565326,0.939117671 104.594301,1.00783288 104.605891,1.06509642 C104.623276,1.13953901 104.631968,1.20825422 104.631968,1.27124411 C104.631968,1.334234 104.629071,1.38863354 104.623276,1.43444437 C104.617481,1.46307613 104.610237,1.49743374 104.601545,1.53751821 C104.592852,1.57760269 104.582711,1.62054969 104.571121,1.66636052 C104.559531,1.7178977 104.545043,1.77516038 104.527658,1.83815027 C104.510273,1.90114015 104.492888,1.95840283 104.475503,2.00994001 L104.449425,2.10442437 C104.350909,2.37356298 104.239356,2.65415009 104.114763,2.94619412 C103.990169,3.23823814 103.848193,3.55031973 103.688829,3.88244823 C103.529465,4.21457673 103.352719,4.56960532 103.158585,4.94754464 C102.964451,5.32548397 102.748588,5.7349121 102.510991,6.17584132 C102.145903,6.85727738 101.811244,7.46998801 101.507004,8.01399158 C101.202764,8.55799516 100.923157,9.05618044 100.668175,9.50856236 C100.621815,9.58873131 100.576904,9.66889905 100.533441,9.749068 C100.489978,9.82923695 100.445067,9.9094047 100.398707,9.98957365 C100.352347,10.0697426 100.300192,10.1613629 100.242241,10.2644372 C100.184291,10.3675116 100.132136,10.4591319 100.085776,10.5393008 C100.02203,10.6538279 99.9582858,10.7683532 99.8945402,10.8828803 C99.8307947,10.9974074 99.7699476,11.1033433 99.7119971,11.2006913 C99.6192764,11.3610292 99.5309032,11.5156385 99.446875,11.6645237 C99.3628468,11.8134088 99.2802686,11.9622918 99.1991379,12.111177 L98.8601293,12.7038516 L98.8688218,12.7038516 C98.7181506,12.9787166 98.5587892,13.2635984 98.3907328,13.5585056 C98.2226764,13.8534128 98.04593,14.1583365 97.8604885,14.473286 C98.1096756,14.5019177 98.3443715,14.5190965 98.5645833,14.5248229 L98.608046,14.5248229 C98.7239469,14.5305493 98.8340512,14.534844 98.9383621,14.5377071 C99.0426729,14.5405703 99.1469822,14.5420019 99.2512931,14.5420019 C99.3903743,14.5420019 99.5222096,14.5405703 99.6468032,14.5377071 C99.7713967,14.534844 99.8974371,14.5305493 100.024928,14.5248229 C100.459557,14.5076438 100.878243,14.4775809 101.280999,14.4346333 C101.683754,14.3916856 102.058978,14.3387177 102.406681,14.2757278 C103.067317,14.1612007 103.625082,14.038086 104.079993,13.9063798 C104.534904,13.7746737 104.91882,13.6515589 105.231753,13.5370319 C105.411399,13.474042 105.564966,13.4182109 105.692457,13.3695369 C105.819948,13.3208629 105.931501,13.2764843 106.027119,13.2363998 C106.122738,13.1963153 106.206764,13.1590946 106.279203,13.1247365 C106.351641,13.0903784 106.419731,13.0588839 106.483477,13.0302521 L106.49217,13.0216626 C106.497965,13.0216626 106.506657,13.0159364 106.518247,13.0044837 C106.668918,12.9357674 106.807997,12.8713469 106.935489,12.8112202 C107.06298,12.7510935 107.202059,12.6809467 107.35273,12.6007778 C107.491811,12.5320615 107.632339,12.477662 107.774318,12.4375775 C107.916296,12.397493 108.042337,12.3774511 108.152443,12.3774511 C108.372654,12.3774511 108.523323,12.4518926 108.604454,12.6007778 L108.604454,12.5921883 C108.639224,12.6551782 108.646468,12.7310512 108.626185,12.8198097 C108.605903,12.9085682 108.56244,13.0001884 108.495797,13.0946733 C108.429154,13.1891581 108.34223,13.2836415 108.235022,13.3781264 C108.127813,13.4726112 108.007568,13.5542105 107.874282,13.6229267 C107.822126,13.6515585 107.762728,13.6801898 107.696085,13.7088216 C107.629442,13.7374534 107.555556,13.7660847 107.474425,13.7947165 L107.45704,13.7947165 C107.428065,13.8061692 107.397641,13.8204849 107.365769,13.8376639 C107.333896,13.854843 107.303472,13.8691587 107.274497,13.8806114 L107.28319,13.8806114 C107.184674,13.9206958 107.06298,13.9679375 106.918103,14.0223379 C106.773227,14.0767383 106.596481,14.1440219 106.387859,14.2241908 C106.063337,14.3387179 105.643202,14.4761483 105.127443,14.6364862 C104.611683,14.7968241 103.974238,14.9485702 103.215086,15.0917291 C102.838408,15.1604453 102.415376,15.2234342 101.945977,15.2806978 C101.476578,15.3379613 100.960827,15.3780452 100.398707,15.4009506 C100.271216,15.406677 100.13938,15.4109717 100.003197,15.4138348 C99.8670132,15.416698 99.7322804,15.4181296 99.5989943,15.4181296 C99.2802666,15.4181296 98.9528513,15.4095402 98.6167385,15.3923611 C98.4602722,15.3809084 98.2965646,15.3694559 98.1256106,15.3580032 C97.9546567,15.3465505 97.7851541,15.3322348 97.6170977,15.3150557 L97.4345546,15.2892873 C97.3881942,15.2778346 97.3099622,15.2635189 97.1998563,15.2463398 C97.0897504,15.2291608 97.002826,15.211982 96.9390805,15.1948029 C96.7826142,15.7674382 96.6362914,16.3057074 96.5001078,16.8096265 C96.3639241,17.3135456 96.2378837,17.7974152 96.1219828,18.2612498 C95.9481313,18.9655913 95.7931161,19.6140911 95.6569325,20.2067687 C95.5207488,20.7994463 95.3976059,21.3420101 95.2875,21.8344765 C95.2585248,21.95473 95.2324474,22.0721184 95.2092672,22.1866455 C95.186087,22.3011726 95.1600097,22.4128348 95.1310345,22.5216355 L95.139727,22.513046 C95.0296211,23.0169651 94.935453,23.4621824 94.8572198,23.8487113 C94.7789867,24.2352401 94.7108959,24.5659321 94.6529454,24.8407971 C94.6413553,24.9095133 94.6283166,24.9753654 94.613829,25.0383553 C94.5993414,25.1013452 94.5863027,25.1586078 94.5747126,25.210145 L94.4617098,25.7598722 Z M97.9821839,11.7675975 C97.8836681,12.0768206 97.7880512,12.3774496 97.6953305,12.6694937 C97.6026097,12.9615377 97.5127878,13.2478511 97.4258621,13.5284424 C97.7619749,12.938628 98.1082238,12.3144648 98.4646193,11.6559342 C98.8210147,10.9974035 99.1991359,10.2902095 99.5989943,9.53433082 C100.068393,8.64674604 100.563862,7.70477502 101.085417,6.70838952 C101.606971,5.71200402 102.143005,4.64119199 102.693534,3.4959213 L102.693534,3.50451079 C102.838411,3.1952877 102.974592,2.90038492 103.102083,2.6197936 C103.229574,2.33920229 103.342576,2.06434144 103.441092,1.79520283 C103.290421,1.87537178 103.142649,1.97128676 102.997773,2.08295065 C102.852897,2.19461454 102.713818,2.30770833 102.580532,2.4222354 C102.308164,2.69137401 102.047391,2.99200306 101.798204,3.32413156 C101.549017,3.66771276 101.286795,4.07427776 101.01153,4.54383874 C100.736265,5.01339973 100.445069,5.56025828 100.137931,6.1844308 C99.8249984,6.84296145 99.4874419,7.63032324 99.1252514,8.54653979 C98.7630609,9.46275634 98.3820422,10.5364315 97.9821839,11.7675975 L97.9821839,11.7675975 Z M120.756609,12.6265462 C120.785584,12.6952625 120.788482,12.7725671 120.765302,12.8584624 C120.742122,12.9443577 120.700108,13.0273886 120.63926,13.1075575 C120.578412,13.1877265 120.50018,13.2664626 120.404562,13.3437684 C120.308943,13.4210742 120.203185,13.4854947 120.087284,13.5370319 C120.075694,13.5427582 120.064104,13.5470529 120.052514,13.5499161 C120.040924,13.5527793 120.029334,13.557074 120.017744,13.5628003 C119.971384,13.5799794 119.920678,13.6000213 119.865625,13.6229267 C119.810572,13.6458322 119.733789,13.6744635 119.635273,13.7088216 C119.577323,13.7260007 119.512129,13.7474742 119.439691,13.7732428 C119.367253,13.7990114 119.275982,13.8319374 119.165876,13.8720219 C119.119516,13.8892009 119.065913,13.9078113 119.005065,13.9278535 C118.944217,13.9478958 118.881921,13.9693693 118.818175,13.9922747 L118.739943,14.0180432 L118.748635,14.0180432 C118.511038,14.0982121 118.176379,14.2055796 117.744648,14.3401489 C117.312917,14.4747182 116.798614,14.6164434 116.201724,14.7653285 C115.552679,14.9256664 114.770359,15.0888651 113.854741,15.2549293 C112.939124,15.4209936 111.901826,15.5383821 110.742816,15.6070983 C110.60953,15.6128246 110.487836,15.6185509 110.37773,15.6242773 C110.267624,15.6300036 110.158968,15.6357299 110.05176,15.6414562 C109.944552,15.6471826 109.83155,15.6514773 109.712751,15.6543405 C109.593953,15.6572036 109.462118,15.6586352 109.317241,15.6586352 C109.311446,15.6700879 109.308549,15.6786773 109.308549,15.6844037 C109.308549,15.69013 109.305651,15.6987194 109.299856,15.7101721 C109.253496,15.8361519 109.210034,15.9478141 109.169468,16.0451621 C109.128903,16.1425101 109.085441,16.2656249 109.03908,16.4145101 C109.207137,16.6321115 109.378088,16.8654569 109.55194,17.1145533 C109.725791,17.3636497 109.905435,17.6428052 110.090876,17.9520283 C110.102467,17.9806601 110.118403,18.0078598 110.138685,18.0336284 C110.158968,18.059397 110.174904,18.0865968 110.186494,18.1152286 C110.232855,18.2068502 110.280663,18.2999021 110.329921,18.3943869 C110.379179,18.4888717 110.42409,18.5847867 110.464655,18.6821347 C110.464655,18.7050401 110.467553,18.7193558 110.473348,18.7250822 C110.496528,18.8052511 110.518259,18.8839873 110.538542,18.9612931 C110.558824,19.0385988 110.568966,19.1287875 110.568966,19.2318619 C110.568966,19.3005781 110.555927,19.383609 110.529849,19.480957 C110.503771,19.578305 110.441476,19.6813779 110.34296,19.7901786 C110.232854,19.8989793 110.121301,19.9633998 110.008297,19.983442 C109.895294,20.0034843 109.798228,20.0106421 109.717098,20.0049158 C109.583812,19.993463 109.473707,19.970558 109.386782,19.9361999 C109.299856,19.9018417 109.215829,19.864621 109.134698,19.8245365 C109.088338,19.8016311 109.026042,19.7644104 108.947809,19.7128732 C108.869576,19.661336 108.798587,19.6097996 108.734842,19.5582624 C108.613146,19.4609144 108.494349,19.3578416 108.378448,19.2490409 C108.262547,19.1402402 108.158238,19.0285779 108.065517,18.9140509 C108.013362,18.8453346 107.959758,18.7651669 107.904705,18.6735452 C107.849653,18.5819236 107.796049,18.4788508 107.743894,18.3643237 C107.680148,18.2154385 107.645378,18.0851659 107.639583,17.973502 C107.633788,17.8618381 107.636686,17.76306 107.648276,17.6771647 C107.648276,17.6714384 107.649725,17.6642805 107.652622,17.655691 C107.65552,17.6471015 107.656968,17.6399436 107.656968,17.6342173 C107.674354,17.468153 107.700431,17.3092491 107.735201,17.1575007 C107.769971,17.0057524 107.810536,16.858301 107.856897,16.7151421 L107.856897,16.7237316 C107.856897,16.7065526 107.862692,16.6865106 107.874282,16.6636052 L107.891667,16.6292473 C107.897462,16.6063419 107.901808,16.5848684 107.904705,16.5648261 C107.907603,16.5447839 107.914847,16.514721 107.926437,16.4746365 C107.909052,16.4460047 107.893115,16.4245312 107.878628,16.4102153 C107.86414,16.3958995 107.845307,16.374426 107.822126,16.3457942 L107.813434,16.3372047 C107.767074,16.2971202 107.723611,16.2455838 107.683046,16.1825939 C107.671456,16.1711412 107.664212,16.1611203 107.661315,16.1525307 C107.658417,16.1439412 107.651173,16.1339202 107.639583,16.1224675 C107.627993,16.1110148 107.62075,16.0995623 107.617852,16.0881096 C107.614954,16.0766569 107.607711,16.0652043 107.596121,16.0537516 L107.613506,16.0709306 L107.483118,15.9163198 C107.454143,15.8762354 107.426617,15.8418778 107.400539,15.813246 C107.374461,15.7846142 107.355627,15.758846 107.344037,15.7359406 L107.309267,15.6844037 C107.297677,15.672951 107.284638,15.6586353 107.270151,15.6414562 C107.255663,15.6242772 107.242625,15.6099615 107.231034,15.5985088 L106.822486,14.7223811 L108.578376,14.808276 C108.642122,14.6651171 108.708764,14.5190973 108.778305,14.3702121 C108.847845,14.2213269 108.914487,14.0753071 108.978233,13.9321483 C109.007208,13.8691584 109.03908,13.8004432 109.073851,13.7260006 C109.108621,13.651558 109.140493,13.5828428 109.169468,13.5198529 C109.175263,13.5084002 109.178161,13.4983792 109.178161,13.4897897 C109.178161,13.4812002 109.181058,13.4711792 109.186853,13.4597265 C109.198444,13.4368211 109.210033,13.4167791 109.221624,13.3996001 C109.279574,13.2678939 109.323036,13.1705474 109.352011,13.1075575 C109.380987,13.0445676 109.41141,12.9801471 109.443283,12.914294 C109.475156,12.848441 109.512823,12.7682732 109.556286,12.6737884 C109.599749,12.5793036 109.670737,12.4347153 109.769253,12.2400193 C109.659147,12.331641 109.56353,12.4089456 109.482399,12.4719355 C109.401269,12.5349253 109.320139,12.5979143 109.239009,12.6609042 C109.175263,12.7124414 109.117313,12.7568199 109.065158,12.7940412 C109.013003,12.8312625 108.963745,12.8670517 108.917385,12.9014098 C108.88841,12.9300416 108.857986,12.9558098 108.826114,12.9787152 C108.794241,13.0016206 108.766715,13.0216626 108.743534,13.0388416 C108.726149,13.0560207 108.704418,13.074631 108.678341,13.0946733 C108.652263,13.1147155 108.639224,13.1218733 108.639224,13.116147 C108.627634,13.1275997 108.617493,13.1376207 108.6088,13.1462102 C108.600108,13.1547997 108.589967,13.1619576 108.578376,13.1676839 C108.450885,13.2593056 108.321947,13.3280208 108.191559,13.3738316 C108.06117,13.4196424 107.940925,13.4425475 107.830819,13.4425475 C107.633787,13.4425475 107.497606,13.3766954 107.42227,13.2449893 L107.42227,13.2535788 C107.37591,13.1905889 107.355627,13.1161474 107.361422,13.0302521 C107.367217,12.9443568 107.393295,12.8555997 107.439655,12.763978 C107.486016,12.6723564 107.548311,12.5807361 107.626545,12.4891144 C107.704778,12.3974928 107.796048,12.3144619 107.900359,12.2400193 C107.940925,12.2113875 107.977143,12.1856193 108.009016,12.1627139 C108.040889,12.1398085 108.071312,12.1169034 108.100287,12.093998 C108.135058,12.0710926 108.172725,12.0481875 108.21329,12.0252821 C108.253856,12.0023767 108.303113,11.9708822 108.361063,11.9307978 L108.404526,11.8878503 C108.427706,11.8763976 108.447988,11.8620819 108.465374,11.8449029 C108.471169,11.8391765 108.479861,11.8305871 108.491451,11.8191344 C108.503041,11.8076817 108.514631,11.7990923 108.526221,11.793366 C108.647917,11.7074707 108.79424,11.6043978 108.965194,11.4841444 C109.136148,11.363891 109.343318,11.2035555 109.58671,11.0031331 C109.783741,10.8427952 110.002501,10.6595547 110.242996,10.453406 C110.48349,10.2472572 110.742815,10.006754 111.020977,9.73188903 C111.264369,9.2680544 111.533835,8.75555345 111.829382,8.19437081 C112.12493,7.63318818 112.46973,7.00902501 112.863793,6.3218626 C112.869588,6.31613625 112.879729,6.29895744 112.894217,6.27032568 C112.908705,6.24169391 112.921743,6.2159257 112.933333,6.19302029 C113.066619,5.96969251 113.201352,5.7449365 113.337536,5.51874554 C113.47372,5.29255458 113.61135,5.08497738 113.750431,4.89600772 C113.762021,4.87882866 113.782303,4.85306046 113.811279,4.81870233 C113.840254,4.78434421 113.869229,4.74998661 113.898204,4.71562849 L113.932974,4.68127054 C113.944564,4.66409148 113.961949,4.64404954 113.985129,4.62114413 C114.00831,4.59823871 114.034387,4.58105991 114.063362,4.5696072 C114.063362,4.5696072 114.069157,4.56674407 114.080747,4.56101772 C114.074952,4.56101772 114.069157,4.56388085 114.063362,4.5696072 L114.141595,4.49230182 C114.153185,4.49230182 114.15898,4.49516495 114.15898,4.50089131 C114.164775,4.49516495 114.176365,4.48943869 114.19375,4.48371233 C114.211135,4.47798598 114.2517,4.46367031 114.315445,4.4407649 L114.419756,4.4407649 C114.437141,4.4407649 114.457423,4.44362803 114.480603,4.44935438 C114.503784,4.45508074 114.529861,4.46367014 114.558836,4.47512285 L114.567529,4.46653336 C114.70661,4.52952325 114.796432,4.59823846 114.836997,4.67268105 C114.877562,4.74712365 114.918127,4.82729139 114.958693,4.91318669 L114.967385,4.96472362 C114.97318,4.98762903 114.976078,5.01196567 114.976078,5.03773426 L114.976078,5.09356593 C114.976078,5.14510311 114.974629,5.19377638 114.971731,5.23958721 C114.968834,5.28539804 114.964488,5.32261878 114.958693,5.35125054 C114.941307,5.47150396 114.913781,5.59175558 114.876114,5.71200901 C114.838446,5.83226243 114.802227,5.94965091 114.767457,6.06417798 L114.741379,6.15007285 C114.555938,6.61390748 114.344422,7.03765128 114.106825,7.42131696 C113.869228,7.80498265 113.631634,8.16287437 113.394037,8.49500287 C113.06372,8.94738479 112.737753,9.35251822 112.416128,9.71041531 C112.094503,10.0683124 111.785921,10.3932781 111.490374,10.6853221 C111.380268,10.9029235 111.278856,11.106206 111.186135,11.2951757 C111.093414,11.4841454 111.003592,11.6673859 110.916667,11.8449029 L110.916667,11.8363134 C110.615324,12.4662123 110.36759,13.0145024 110.173455,13.4812002 C109.979321,13.947898 109.804024,14.3787996 109.647557,14.773918 L109.638865,14.7825075 C109.638865,14.7882339 109.637416,14.7925286 109.634519,14.7953917 C109.631621,14.7982549 109.630172,14.8025496 109.630172,14.808276 C109.827204,14.8025496 110.019887,14.7939602 110.208226,14.7825075 C110.396565,14.7710548 110.606632,14.7596023 110.838434,14.7481496 C111.823592,14.673707 112.704426,14.567771 113.480963,14.4303385 C114.257499,14.2929061 114.909432,14.1526125 115.436782,14.0094537 C115.964131,13.8777475 116.420484,13.747475 116.805855,13.618632 C117.191226,13.489789 117.525885,13.3681059 117.809842,13.2535788 C118.122775,13.1390517 118.370509,13.0431367 118.553053,12.965831 C118.735597,12.8885252 118.896407,12.8183784 119.035489,12.7553885 C119.058669,12.7439358 119.083297,12.7324833 119.109375,12.7210306 C119.135453,12.7095779 119.160081,12.6981253 119.183261,12.6866726 C119.218032,12.6752199 119.252802,12.6623358 119.287572,12.6480199 C119.322342,12.6337041 119.360009,12.6179568 119.400575,12.6007778 L119.391882,12.6007778 C119.432448,12.5778723 119.473012,12.5578304 119.513578,12.5406514 C119.554143,12.5234723 119.59181,12.5091566 119.62658,12.4977039 L119.617888,12.5062934 C119.843895,12.4089454 120.049616,12.3602721 120.235057,12.3602721 C120.356753,12.3602721 120.462512,12.3817456 120.552335,12.4246933 C120.642158,12.4676409 120.707351,12.5320614 120.747917,12.6179567 L120.756609,12.6265462 Z M109.282471,18.5275239 C109.218726,18.4129969 109.160776,18.3084925 109.108621,18.2140077 C109.056465,18.1195228 109.007208,18.0293341 108.960848,17.9434388 L108.952155,17.9520283 C108.928975,17.9176702 108.907244,17.8847441 108.886961,17.8532492 C108.866679,17.8217543 108.844947,17.7916914 108.821767,17.7630596 C108.792792,17.7229751 108.776856,17.6972069 108.773958,17.6857542 C108.771061,17.6743015 108.769612,17.6685752 108.769612,17.6685752 C108.769612,17.6685752 108.766715,17.6657121 108.76092,17.6599857 C108.755124,17.6542594 108.740637,17.6313543 108.717457,17.5912698 C108.711662,17.6199016 108.708764,17.6499645 108.708764,17.6814595 L108.708764,17.7716491 C108.702969,17.8002808 108.700072,17.8375016 108.700072,17.8833124 C108.700072,17.9062178 108.697174,17.9262598 108.691379,17.9434388 C108.708764,17.9777969 108.733393,18.0193124 108.765266,18.0679864 C108.797139,18.1166604 108.836255,18.1724915 108.882615,18.2354814 C109.010106,18.4015456 109.17816,18.5704705 109.386782,18.7422611 C109.380987,18.7308084 109.375192,18.7193559 109.369397,18.7079032 C109.363602,18.6964505 109.357807,18.6849979 109.352011,18.6735452 C109.340421,18.6563662 109.328831,18.6334611 109.317241,18.6048293 C109.305651,18.5761976 109.294061,18.5532925 109.282471,18.5361134 L109.282471,18.5275239 Z M114.324138,5.60893516 C114.318343,5.62038787 114.312548,5.62897727 114.306753,5.63470362 C114.300958,5.64042997 114.295163,5.64901938 114.289368,5.66047208 C114.312548,5.63756667 114.324138,5.62038787 114.324138,5.60893516 L114.324138,5.60893516 Z" id="Gift" fill="#2F3639"></path>
                </g>
            </g>
        </g>
    </g>
</svg>