<?xml version="1.0" encoding="UTF-8" standalone="no"?>
<svg width="241px" height="48px" viewBox="0 0 241 48" version="1.1" xmlns="http://www.w3.org/2000/svg" xmlns:xlink="http://www.w3.org/1999/xlink">
    <!-- Generator: Sketch 40.3 (33839) - http://www.bohemiancoding.com/sketch -->
    <title>Guarantee</title>
    <desc>Created with Sketch.</desc>
    <defs></defs>
    <g id="Page-1" stroke="none" stroke-width="1" fill="none" fill-rule="evenodd">
        <g id="Checkout---Gift-Copy" transform="translate(-716.000000, -2309.000000)">
            <g id="Group-3" transform="translate(685.000000, 2309.000000)">
                <g id="Guarantee" transform="translate(31.493671, 0.000000)">
                    <g id="badge">
                        <g id="Capa_1">
                            <g id="Group">
                                <path d="M34.4253627,19.7180422 L33.8896136,18.98717 C33.3002896,18.1849931 33.2913605,17.0975978 33.8717553,16.2865078 L34.3985753,15.5467225 C35.202199,14.4147618 34.8271746,12.8282342 33.6038808,12.1686666 L32.8002571,11.7408389 C31.9252002,11.2684459 31.443026,10.2969205 31.6126799,9.31648215 L31.7644755,8.41626144 C31.9966334,7.04364769 30.969781,5.77799085 29.5768333,5.72451239 L28.6660598,5.68886009 C27.6749239,5.64429471 26.8177254,4.97581398 26.5409217,4.02211482 L26.2909054,3.14863334 C25.9069519,1.81167189 24.4336418,1.11645194 23.147844,1.66906267 L22.3085037,2.02558572 C21.3977302,2.41776108 20.3351611,2.1860211 19.6654747,1.44623576 L19.0582924,0.768841963 C18.1296606,-0.26507489 16.4956258,-0.256161813 15.5848523,0.795581192 L14.9865992,1.48188807 C14.3347711,2.23058648 13.272202,2.48015262 12.3524994,2.10580341 L11.5131591,1.75819343 C10.2273612,1.22340886 8.76298033,1.94536804 8.39688511,3.28232948 L8.15579801,4.15581096 C7.8968526,5.10951013 7.04858318,5.795817 6.05744732,5.85820854 L5.14667383,5.911687 C3.75372615,5.99190468 2.74473199,7.27538767 3.00367739,8.63908835 L3.16440212,9.53039598 C3.34298516,10.5108344 2.87866926,11.4912728 2.01254153,11.9725789 L1.21784702,12.4182327 C-0.00544678263,13.0956265 -0.353683705,14.6821541 0.467798265,15.8052017 L1.00354738,16.536074 C1.5928714,17.3382508 1.60180055,18.4256461 1.02140568,19.2367361 L0.494585721,19.9765214 C-0.309037945,21.1084821 0.0659864322,22.6950097 1.28928024,23.3545773 L2.0929039,23.782405 C2.96796078,24.2547981 3.45013498,25.2263234 3.2804811,26.2067618 L3.12868552,27.1069825 C2.89652757,28.4795962 3.92338003,29.7452531 5.31632772,29.7987315 L6.22710121,29.8343838 C7.21823706,29.8789492 8.07543564,30.5474299 8.35223935,31.5011291 L8.6022556,32.3746106 C8.98620913,33.711572 10.4595192,34.406792 11.745317,33.8541812 L12.5846573,33.4976582 C13.4954308,33.1054828 14.5579999,33.3372228 15.2276863,34.0770082 L15.8348686,34.754402 C16.7635004,35.7883188 18.3975352,35.7794057 19.3083087,34.7276627 L19.9065618,34.0413558 C20.5583899,33.2926574 21.620959,33.0430913 22.5406616,33.4174405 L23.3800019,33.7650505 C24.6657998,34.2998351 26.1301807,33.5778759 26.4962759,32.2409144 L26.737363,31.367433 C26.9963084,30.4137338 27.8445778,29.7274269 28.8357137,29.6650354 L29.7464872,29.6115569 C31.1394349,29.5313392 32.148429,28.2478562 31.8894836,26.8841556 L31.7287589,25.9928479 C31.5501758,25.0124095 32.0144917,24.0319711 32.8806195,23.550665 L33.675314,23.1050112 C34.8986078,22.4365305 35.2468447,20.8410898 34.4253627,19.7180422 L34.4253627,19.7180422 Z M17.4331868,29.3441646 C11.0309849,29.3441646 5.82528937,24.1478411 5.82528937,17.7571654 C5.82528937,11.3664897 11.0309849,6.17016621 17.4331868,6.17016621 C23.8353887,6.17016621 29.0410842,11.3664897 29.0410842,17.7571654 C29.0410842,24.1478411 23.8353887,29.3441646 17.4331868,29.3441646 L17.4331868,29.3441646 Z" id="Shape" fill="#A88D61"></path>
                                <path d="M29.558975,32.187436 L29.1571632,32.2141752 L28.9607218,32.9272213 C28.3803269,35.0396204 26.442701,36.510278 24.2550588,36.510278 C23.6121599,36.510278 22.9871192,36.3854949 22.3977952,36.1448419 L21.7191797,35.8596234 L21.50488,36.1091896 L24.8175954,42.1255161 C25.0140367,42.473126 25.3533445,42.7226922 25.7462271,42.7939968 L29.737558,43.5337821 C30.3625987,43.6496521 30.9876393,43.3109552 31.2287264,42.7137791 L32.737753,38.9524609 C32.8895486,38.5781117 32.8627612,38.1591971 32.6663198,37.8115871 L29.558975,32.187436 L29.558975,32.187436 Z" id="Shape" fill="#A88D61"></path>
                                <path d="M12.7453821,36.2072334 C12.1292706,36.4746257 11.4863716,36.6083218 10.8166853,36.6083218 C8.65583051,36.6083218 6.72713371,35.1644035 6.12888054,33.0965698 L5.92351004,32.3924367 L5.2091779,32.3656975 L2.20898288,37.8205002 C2.01254153,38.1681102 1.98575408,38.5870248 2.13754966,38.961374 L3.64657632,42.7226922 C3.88766342,43.3198683 4.51270405,43.6585652 5.13774468,43.5426952 L9.12907556,42.8029099 C9.52195824,42.7316053 9.86126601,42.4820391 10.0577073,42.1344291 L13.4597142,35.9576673 L13.4329267,35.930928 L12.7453821,36.2072334 L12.7453821,36.2072334 Z" id="Shape" fill="#A88D61"></path>
                                <path d="M24.1211215,17.1065108 C24.1211215,17.1065108 24.7908079,16.0636809 23.9246802,15.2704171 C22.8442528,14.2810657 19.9065618,14.9406333 19.9065618,14.9406333 L19.9065618,14.9406333 C19.7011913,14.9762856 19.4868917,15.020851 19.2547338,15.0743294 C19.2547338,15.0743294 18.2368104,15.5467225 19.2547338,12.4717112 C20.2726571,9.39669984 18.5761182,8.91539372 17.8617861,8.91539372 C17.1474539,8.91539372 17.388541,10.4395298 17.388541,10.4395298 C17.388541,10.4395298 15.8616561,14.6375887 14.4062043,15.7517232 C14.0222508,16.1617248 13.8079511,16.6162917 13.7008013,16.9371624 C13.4686434,16.7410747 13.1739813,16.6252047 12.8525319,16.6252047 L10.8970476,16.6252047 C10.1737863,16.6252047 9.59339145,17.2134678 9.59339145,17.9265139 L9.59339145,23.1317504 C9.59339145,23.8537096 10.1827155,24.4330596 10.8970476,24.4330596 L12.8525319,24.4330596 C13.1204064,24.4330596 13.3704227,24.3528419 13.5757932,24.2102327 C13.6204389,24.1656673 13.8793843,23.9071881 13.8793843,23.1852289 L13.8793843,19.9497822 C13.8793843,20.0745653 13.8972426,23.9606665 16.1384598,24.2013196 C16.9420834,24.2547981 17.9332193,24.2993634 18.9243551,24.2815373 C19.8261995,24.3528419 20.7905479,24.361755 21.5495258,24.2013196 C24.1389798,23.6487089 23.4960809,21.8482674 23.4960809,21.8482674 C24.8979577,20.7965244 24.1032632,19.4863022 24.1032632,19.4863022 C25.3354862,18.1939062 24.1211215,17.1065108 24.1211215,17.1065108 L24.1211215,17.1065108 Z" id="Shape" fill="#BBA37D"></path>
                            </g>
                        </g>
                    </g>
                    <path d="M136.599861,22.0829901 C136.599861,22.6668992 136.706151,23.2152922 136.918734,23.7281854 C137.131318,24.2410786 137.422631,24.6908397 137.792684,25.0774822 C138.162736,25.4641248 138.59577,25.7718561 139.091797,26.0006854 C139.587825,26.2295146 140.127149,26.3439276 140.709785,26.3439276 C141.276674,26.3439276 141.815997,26.2413505 142.327772,26.0361932 C142.839547,25.8310359 143.292264,25.543031 143.685937,25.1721697 C144.07961,24.8013085 144.382733,24.3554927 144.595316,23.8347088 C144.8079,23.313925 144.906317,22.7300245 144.89057,22.0829901 C144.89057,21.4990809 144.79609,20.9506879 144.607127,20.4377947 C144.418164,19.9249016 144.142597,19.4751404 143.780418,19.0884979 C143.418239,18.7018553 142.977332,18.394124 142.457684,18.1652947 C141.938035,17.9364655 141.355408,17.8220526 140.709785,17.8220526 C140.127149,17.8220526 139.587825,17.9364655 139.091797,18.1652947 C138.59577,18.394124 138.162736,18.7018553 137.792684,19.0884979 C137.422631,19.4751404 137.131318,19.9249016 136.918734,20.4377947 C136.706151,20.9506879 136.599861,21.4990809 136.599861,22.0829901 L136.599861,22.0829901 Z M136.316418,29.9893963 C136.773078,30.6048681 137.367515,31.0980273 138.099747,31.4688885 C138.831978,31.8397497 139.646869,32.0251776 140.544443,32.0251776 C141.331789,32.0251776 142.001023,31.9107646 142.552165,31.6819354 C143.103307,31.4531061 143.54815,31.1414295 143.886709,30.7468963 C144.225268,30.3523631 144.469341,29.8907661 144.618937,29.3620916 C144.768532,28.8334171 144.843329,28.2692431 144.843329,27.6695526 L144.843329,25.6811151 L144.796089,25.6811151 C144.292187,26.4386188 143.678067,26.975176 142.953709,27.2908026 C142.229351,27.6064291 141.465637,27.7642401 140.662544,27.7642401 C139.859452,27.7642401 139.107548,27.6222102 138.40681,27.3381463 C137.706072,27.0540824 137.095889,26.6635004 136.576241,26.1663885 C136.056592,25.6692766 135.647179,25.0735404 135.347987,24.3791619 C135.048796,23.6847835 134.899203,22.9351816 134.899203,22.1303338 C134.899203,21.325486 135.040923,20.5758842 135.324367,19.8815057 C135.607812,19.1871272 135.997542,18.5795552 136.49357,18.0587713 C136.989597,17.5379875 137.580098,17.1316243 138.265089,16.8396697 C138.950079,16.5477152 139.701983,16.4017401 140.520823,16.4017401 C140.851508,16.4017401 141.201872,16.4333022 141.571924,16.4964276 C141.941977,16.5595529 142.312023,16.6700205 142.682076,16.8278338 C143.052128,16.9856471 143.418239,17.2026371 143.780418,17.4788104 C144.142597,17.7549836 144.48115,18.1061129 144.796089,18.5322088 L144.843329,18.5322088 L144.843329,16.6858026 L146.402266,16.6858026 L146.402266,27.6695526 C146.402266,28.2692431 146.327469,28.9083773 146.177873,29.5869744 C146.028278,30.2655716 145.736964,30.8889247 145.303924,31.4570526 C144.870884,32.0251804 144.268573,32.4986132 143.496975,32.8773651 C142.725376,33.256117 141.717588,33.4454901 140.473582,33.4454901 C139.371298,33.4454901 138.387131,33.2640075 137.521051,32.9010369 C136.65497,32.5380664 135.867636,31.9778376 135.159025,31.2203338 L136.316418,29.9893963 Z M157.881709,27.7642401 C157.850215,27.4643948 157.830532,27.1684993 157.822658,26.8765447 C157.814785,26.5845902 157.810848,26.2886947 157.810848,25.9888494 L157.763608,25.9888494 C157.590392,26.2886947 157.369938,26.5648638 157.102241,26.8173651 C156.834543,27.0698663 156.535356,27.2868563 156.204671,27.4683416 C155.873986,27.6498269 155.523622,27.7918567 155.15357,27.8944354 C154.783517,27.997014 154.417407,28.0483026 154.055228,28.0483026 C152.638006,28.0483026 151.590851,27.6735016 150.913734,26.9238885 C150.236617,26.1742754 149.898063,25.1051064 149.898063,23.7163494 L149.898063,16.6858026 L151.457,16.6858026 L151.457,22.8168182 C151.457,23.43229 151.50424,23.9767377 151.598722,24.4501776 C151.693203,24.9236174 151.854606,25.32209 152.082937,25.6456072 C152.311267,25.9691245 152.618327,26.2137314 153.004127,26.3794354 C153.389926,26.5451393 153.874136,26.6279901 154.456772,26.6279901 C154.535507,26.6279901 154.75596,26.5964279 155.118139,26.5333026 C155.480318,26.4701772 155.862175,26.2965852 156.263722,26.0125213 C156.665268,25.7284574 157.023505,25.3023679 157.338443,24.7342401 C157.653381,24.1661122 157.810848,23.3770576 157.810848,22.3670526 L157.810848,16.6858026 L159.369785,16.6858026 L159.369785,25.3260369 C159.369785,25.6258822 159.381595,26.0046284 159.405215,26.4622869 C159.428836,26.9199455 159.456392,27.3539255 159.487886,27.7642401 L157.881709,27.7642401 Z M169.313911,22.2486932 C168.920239,22.2486932 168.428155,22.2684195 167.837646,22.3078729 C167.247136,22.3473262 166.680256,22.4420127 166.136987,22.5919354 C165.593719,22.741858 165.129192,22.9746291 164.743392,23.2902557 C164.357593,23.6058823 164.164696,24.0398623 164.164696,24.5922088 C164.164696,24.9551794 164.239493,25.2668559 164.389089,25.5272479 C164.538684,25.7876398 164.739454,26.0006845 164.991405,26.1663885 C165.243356,26.3320924 165.522859,26.4504506 165.829924,26.5214666 C166.136989,26.5924826 166.447986,26.6279901 166.762924,26.6279901 C167.329813,26.6279901 167.821897,26.5333035 168.23919,26.3439276 C168.656483,26.1545516 169.006847,25.8981089 169.290291,25.5745916 C169.573736,25.2510744 169.782379,24.8723282 169.916228,24.4383416 C170.050077,24.0043551 170.117,23.5427581 170.117,23.0535369 L170.117,22.2486932 L169.313911,22.2486932 Z M170.117,20.9704119 L170.117,20.6863494 C170.117,18.7768086 169.172199,17.8220526 167.28257,17.8220526 C165.991323,17.8220526 164.865435,18.2560326 163.904873,19.1240057 L162.960063,18.0114276 C163.99936,16.9382972 165.558281,16.4017401 167.636873,16.4017401 C168.172268,16.4017401 168.687972,16.4806455 169.184,16.6384588 C169.680028,16.7962721 170.109125,17.0369338 170.471304,17.360451 C170.833483,17.6839682 171.124796,18.0903314 171.345253,18.5795526 C171.56571,19.0687738 171.675937,19.6526742 171.675937,20.3312713 L171.675937,25.2786932 C171.675937,25.7047891 171.69562,26.1506049 171.734987,26.6161541 C171.774355,27.0817033 171.817658,27.4643948 171.864899,27.7642401 L170.353203,27.7642401 C170.305962,27.4959575 170.270532,27.2040073 170.246911,26.8883807 C170.223291,26.5727541 170.211481,26.2650228 170.211481,25.9651776 L170.164241,25.9651776 C169.70758,26.7069 169.168256,27.2395119 168.546253,27.5630291 C167.92425,27.8865464 167.164473,28.0483026 166.266899,28.0483026 C165.778744,28.0483026 165.306344,27.9812329 164.849684,27.8470916 C164.393023,27.7129503 163.987546,27.5077961 163.633241,27.2316229 C163.278935,26.9554496 162.995495,26.6161561 162.782911,26.2137322 C162.570328,25.8113084 162.464038,25.3418209 162.464038,24.8052557 C162.464038,23.9057199 162.696301,23.1995161 163.160835,22.6866229 C163.625369,22.1737297 164.207996,21.7910382 164.908734,21.5385369 C165.609472,21.2860357 166.357439,21.1282247 167.152658,21.0650994 C167.947877,21.0019741 168.676161,20.9704119 169.337532,20.9704119 L170.117,20.9704119 Z M175.455177,20.1418963 C175.455177,19.6526751 175.443367,19.1555707 175.419747,18.6505682 C175.396126,18.1455657 175.376443,17.4906503 175.360696,16.6858026 L176.896013,16.6858026 L176.896013,18.7452557 L176.943253,18.7452557 C177.053482,18.4454104 177.210948,18.1574055 177.415658,17.8812322 C177.620368,17.605059 177.868378,17.3565068 178.159696,17.1355682 C178.451014,16.9146296 178.789568,16.7370923 179.175367,16.602951 C179.561166,16.4688097 179.998137,16.4017401 180.486291,16.4017401 C180.927205,16.4017401 181.312998,16.4490833 181.643684,16.5437713 L181.33662,18.0824432 C181.13191,18.0035365 180.832723,17.9640838 180.439051,17.9640838 C179.840668,17.9640838 179.328901,18.0784967 178.903734,18.307326 C178.478567,18.5361553 178.124267,18.8281055 177.840823,19.1831854 C177.557378,19.5382653 177.348735,19.9209568 177.214886,20.3312713 C177.081037,20.7415859 177.014114,21.1361132 177.014114,21.5148651 L177.014114,27.7642401 L175.455177,27.7642401 L175.455177,20.1418963 Z M189.414747,22.2486932 C189.021074,22.2486932 188.52899,22.2684195 187.938481,22.3078729 C187.347972,22.3473262 186.781091,22.4420127 186.237823,22.5919354 C185.694554,22.741858 185.230027,22.9746291 184.844228,23.2902557 C184.458428,23.6058823 184.265532,24.0398623 184.265532,24.5922088 C184.265532,24.9551794 184.340328,25.2668559 184.489924,25.5272479 C184.63952,25.7876398 184.84029,26.0006845 185.092241,26.1663885 C185.344191,26.3320924 185.623695,26.4504506 185.930759,26.5214666 C186.237824,26.5924826 186.548821,26.6279901 186.863759,26.6279901 C187.430648,26.6279901 187.922732,26.5333035 188.340025,26.3439276 C188.757319,26.1545516 189.107682,25.8981089 189.391127,25.5745916 C189.674571,25.2510744 189.883215,24.8723282 190.017063,24.4383416 C190.150912,24.0043551 190.217835,23.5427581 190.217835,23.0535369 L190.217835,22.2486932 L189.414747,22.2486932 Z M190.217835,20.9704119 L190.217835,20.6863494 C190.217835,18.7768086 189.273035,17.8220526 187.383405,17.8220526 C186.092158,17.8220526 184.966271,18.2560326 184.005709,19.1240057 L183.060899,18.0114276 C184.100195,16.9382972 185.659116,16.4017401 187.737709,16.4017401 C188.273104,16.4017401 188.788808,16.4806455 189.284835,16.6384588 C189.780863,16.7962721 190.20996,17.0369338 190.572139,17.360451 C190.934318,17.6839682 191.225632,18.0903314 191.446089,18.5795526 C191.666545,19.0687738 191.776772,19.6526742 191.776772,20.3312713 L191.776772,25.2786932 C191.776772,25.7047891 191.796455,26.1506049 191.835823,26.6161541 C191.87519,27.0817033 191.918493,27.4643948 191.965734,27.7642401 L190.454038,27.7642401 C190.406797,27.4959575 190.371367,27.2040073 190.347747,26.8883807 C190.324126,26.5727541 190.312316,26.2650228 190.312316,25.9651776 L190.265076,25.9651776 C189.808415,26.7069 189.269092,27.2395119 188.647089,27.5630291 C188.025085,27.8865464 187.265308,28.0483026 186.367734,28.0483026 C185.87958,28.0483026 185.407179,27.9812329 184.950519,27.8470916 C184.493858,27.7129503 184.088382,27.5077961 183.734076,27.2316229 C183.37977,26.9554496 183.09633,26.6161561 182.883747,26.2137322 C182.671163,25.8113084 182.564873,25.3418209 182.564873,24.8052557 C182.564873,23.9057199 182.797137,23.1995161 183.261671,22.6866229 C183.726205,22.1737297 184.308832,21.7910382 185.00957,21.5385369 C185.710307,21.2860357 186.458275,21.1282247 187.253494,21.0650994 C188.048713,21.0019741 188.776997,20.9704119 189.438367,20.9704119 L190.217835,20.9704119 Z M196.878747,16.6858026 C196.910241,16.9856478 196.929924,17.2815433 196.937797,17.5734979 C196.945671,17.8654525 196.949608,18.1613479 196.949608,18.4611932 L196.996848,18.4611932 C197.170064,18.1613479 197.390518,17.8851788 197.658215,17.6326776 C197.925913,17.3801763 198.2251,17.1631863 198.555785,16.981701 C198.88647,16.8002157 199.236834,16.6581859 199.606886,16.5556072 C199.976939,16.4530286 200.343049,16.4017401 200.705228,16.4017401 C202.12245,16.4017401 203.169604,16.776541 203.846722,17.5261541 C204.523839,18.2757672 204.862392,19.3449362 204.862392,20.7336932 L204.862392,27.7642401 L203.303456,27.7642401 L203.303456,21.6332244 C203.303456,20.4022808 203.090876,19.4593605 202.665709,18.8044354 C202.240542,18.1495102 201.453208,17.8220526 200.303684,17.8220526 C200.224949,17.8220526 200.004495,17.8536147 199.642316,17.9167401 C199.280137,17.9798654 198.89828,18.1534574 198.496734,18.4375213 C198.095188,18.7215852 197.736951,19.1476747 197.422013,19.7158026 C197.107074,20.2839304 196.949608,21.072985 196.949608,22.0829901 L196.949608,27.7642401 L195.390671,27.7642401 L195.390671,19.1240057 C195.390671,18.8241604 195.378861,18.4454142 195.355241,17.9877557 C195.33162,17.5300971 195.304063,17.0961171 195.27257,16.6858026 L196.878747,16.6858026 Z M214.239633,18.1061151 L211.050899,18.1061151 L211.050899,24.6395526 C211.050899,25.0498671 211.090265,25.3852153 211.169,25.6456072 C211.247735,25.9059992 211.357961,26.1072081 211.499684,26.2492401 C211.641406,26.391272 211.810683,26.4899038 212.007519,26.5451385 C212.204355,26.6003731 212.420872,26.6279901 212.657076,26.6279901 C212.924773,26.6279901 213.20034,26.5885373 213.483785,26.5096307 C213.767229,26.430724 214.027049,26.3281469 214.263253,26.2018963 L214.334114,27.6458807 C213.751478,27.9141633 213.050751,28.0483026 212.231911,28.0483026 C211.93272,28.0483026 211.621723,28.0088498 211.298911,27.9299432 C210.9761,27.8510365 210.680849,27.7011162 210.413152,27.4801776 C210.145454,27.259239 209.925001,26.9593982 209.751785,26.5806463 C209.578569,26.2018944 209.491962,25.70479 209.491962,25.0893182 L209.491962,18.1061151 L207.153557,18.1061151 L207.153557,16.6858026 L209.491962,16.6858026 L209.491962,13.5611151 L211.050899,13.5611151 L211.050899,16.6858026 L214.239633,16.6858026 L214.239633,18.1061151 Z M224.963228,21.3728338 C224.963228,20.3154848 224.648294,19.4593605 224.018418,18.8044354 C223.388541,18.1495102 222.506727,17.8220526 221.372949,17.8220526 C220.869048,17.8220526 220.380901,17.9206844 219.908494,18.117951 C219.436086,18.3152176 219.022736,18.5795509 218.66843,18.9109588 C218.314125,19.2423667 218.030685,19.6211129 217.818101,20.0472088 C217.605518,20.4733047 217.499228,20.9151753 217.499228,21.3728338 L224.963228,21.3728338 Z M217.451987,22.6511151 C217.499228,23.2034616 217.633075,23.7242376 217.853532,24.2134588 C218.073988,24.70268 218.365302,25.1248242 218.727481,25.4799041 C219.08966,25.834984 219.506947,26.1150984 219.979354,26.3202557 C220.451762,26.525413 220.963529,26.6279901 221.514671,26.6279901 C222.349257,26.6279901 223.069668,26.4346717 223.675924,26.0480291 C224.28218,25.6613866 224.742771,25.2155707 225.057709,24.7105682 L226.262342,25.7047869 C225.600971,26.5411974 224.872688,27.1408789 224.077468,27.5038494 C223.282249,27.86682 222.427992,28.0483026 221.514671,28.0483026 C220.695831,28.0483026 219.936054,27.9023275 219.235316,27.6103729 C218.534579,27.3184183 217.932268,26.9120552 217.428367,26.3912713 C216.924466,25.8704875 216.526862,25.2550249 216.235544,24.5448651 C215.944226,23.8347053 215.79857,23.0614317 215.79857,22.2250213 C215.79857,21.3886109 215.94029,20.6153374 216.223734,19.9051776 C216.507179,19.1950178 216.900846,18.5795552 217.404747,18.0587713 C217.908648,17.5379875 218.499149,17.1316243 219.176266,16.8396697 C219.853383,16.5477152 220.585604,16.4017401 221.372949,16.4017401 C222.207536,16.4017401 222.955503,16.5516604 223.616873,16.8515057 C224.278244,17.1513509 224.833314,17.5498235 225.282101,18.0469354 C225.730888,18.5440472 226.073379,19.1279476 226.309582,19.7986541 C226.545786,20.4693606 226.663886,21.183455 226.663886,21.9409588 L226.663886,22.6511151 L217.451987,22.6511151 Z M238.096089,21.3728338 C238.096089,20.3154848 237.781155,19.4593605 237.151278,18.8044354 C236.521402,18.1495102 235.639588,17.8220526 234.50581,17.8220526 C234.001909,17.8220526 233.513762,17.9206844 233.041354,18.117951 C232.568947,18.3152176 232.155597,18.5795509 231.801291,18.9109588 C231.446986,19.2423667 231.163545,19.6211129 230.950962,20.0472088 C230.738379,20.4733047 230.632089,20.9151753 230.632089,21.3728338 L238.096089,21.3728338 Z M230.584848,22.6511151 C230.632089,23.2034616 230.765936,23.7242376 230.986392,24.2134588 C231.206849,24.70268 231.498163,25.1248242 231.860342,25.4799041 C232.222521,25.834984 232.639808,26.1150984 233.112215,26.3202557 C233.584623,26.525413 234.09639,26.6279901 234.647532,26.6279901 C235.482118,26.6279901 236.202529,26.4346717 236.808785,26.0480291 C237.415041,25.6613866 237.875631,25.2155707 238.19057,24.7105682 L239.395203,25.7047869 C238.733832,26.5411974 238.005548,27.1408789 237.210329,27.5038494 C236.41511,27.86682 235.560853,28.0483026 234.647532,28.0483026 C233.828692,28.0483026 233.068915,27.9023275 232.368177,27.6103729 C231.66744,27.3184183 231.065129,26.9120552 230.561228,26.3912713 C230.057327,25.8704875 229.659723,25.2550249 229.368405,24.5448651 C229.077087,23.8347053 228.93143,23.0614317 228.93143,22.2250213 C228.93143,21.3886109 229.07315,20.6153374 229.356595,19.9051776 C229.640039,19.1950178 230.033706,18.5795552 230.537608,18.0587713 C231.041509,17.5379875 231.632009,17.1316243 232.309127,16.8396697 C232.986244,16.5477152 233.718464,16.4017401 234.50581,16.4017401 C235.340397,16.4017401 236.088364,16.5516604 236.749734,16.8515057 C237.411105,17.1513509 237.966175,17.5498235 238.414962,18.0469354 C238.863749,18.5440472 239.206239,19.1279476 239.442443,19.7986541 C239.678647,20.4693606 239.796747,21.183455 239.796747,21.9409588 L239.796747,22.6511151 L230.584848,22.6511151 Z" id="guarantee" fill="#BBA37D"></path>
                    <g id="Waft-Logo" transform="translate(38.186076, 6.537741)">
                        <path d="M63.3895112,26.0695926 C63.3895112,26.5103908 62.9304123,26.970629 62.0122006,27.4503211 C61.093989,27.9300132 60.208122,28.1698557 59.3545732,28.1698557 C57.5698801,28.1698557 56.6387499,27.2493792 56.5611546,25.4083987 C55.5782801,27.3271672 54.0522611,28.286537 51.9830518,28.286537 C50.8708518,28.286537 49.9526539,27.9559433 49.2284307,27.2947461 C48.5042074,26.6335489 48.1421012,25.7843769 48.1421012,24.7472048 C48.1421012,22.6210019 49.4224053,20.9356224 51.9830518,19.6910159 C52.8624658,19.276147 54.3884848,18.8612844 56.5611546,18.4464155 L56.5611546,17.4740715 C56.5611546,15.1922928 56.4447633,13.6884158 56.2119772,12.9623953 C55.7981354,11.6400008 54.8670051,10.9788135 53.4185586,10.9788135 C52.5132795,10.9788135 51.7567362,11.2251382 51.148906,11.7177949 C50.5410757,12.2104517 50.2371652,12.8327457 50.2371652,13.5846955 C50.2371652,13.7921299 50.3988197,13.8958455 50.7221337,13.8958455 C51.0454476,13.8958455 51.3364258,14.051419 51.595077,14.3625707 C51.8537282,14.6737223 51.9830518,15.0237627 51.9830518,15.4127022 C51.9830518,16.5535916 51.4140278,17.1240277 50.2759627,17.1240277 C49.681065,17.1240277 49.1896351,16.9230786 48.8016584,16.5211744 C48.4136816,16.1192702 48.2196962,15.6071741 48.2196962,14.9848708 C48.2196962,13.7661936 48.6981937,12.7160725 49.655203,11.8344762 C50.7156727,10.875092 52.1899623,10.3954071 54.0781158,10.3954071 C56.9232786,10.3954071 58.6691478,11.1732745 59.3157757,12.7290327 C59.5485617,13.3254067 59.664953,14.5051723 59.664953,16.2683649 L59.664953,23.5414982 C59.664953,24.7342461 59.6778854,25.4343268 59.7037505,25.6417613 C59.8330761,26.5752162 60.2081147,27.0419366 60.8288775,27.0419366 C61.5531007,27.0419366 62.1479895,26.7826475 62.6135616,26.2640614 C62.8722127,25.9788391 63.0661982,25.8362301 63.1955238,25.8362301 C63.3248494,25.8362301 63.3895112,25.9140168 63.3895112,26.0695926 L63.3895112,26.0695926 Z M56.5611546,21.946854 L56.5611546,19.1076095 C54.6212708,19.5484076 53.2310417,20.125326 52.3904254,20.8383818 C51.5498091,21.5514377 51.1295072,22.5043253 51.1295072,23.6970732 C51.1295072,24.5268109 51.368756,25.2074449 51.8472606,25.7389957 C52.3257653,26.2705464 52.9271202,26.5363178 53.6513435,26.5363178 C54.7635435,26.5363178 55.6558766,25.9140238 56.3283697,24.6694172 C56.4835604,24.3841949 56.5611546,23.4766829 56.5611546,21.946854 L56.5611546,21.946854 Z M76.1538824,3.3556364 C76.1538824,3.90015178 75.9922278,4.34742555 75.6689139,4.69747115 C75.3455999,5.04751674 74.9252981,5.22253692 74.4079958,5.22253692 C73.9165585,5.22253692 73.5027229,5.06696343 73.1664764,4.75581179 C72.8302299,4.44466015 72.6621091,4.05572643 72.6621091,3.58899897 C72.6621091,3.20005942 72.8302299,2.74630341 73.1664764,2.22771735 C73.2440717,2.09807083 73.2828688,1.98139071 73.2828688,1.8776735 C73.2828688,1.28129952 72.8561008,0.983117004 72.0025519,0.983117004 C70.5541054,0.983117004 69.5971105,1.91655793 69.1315384,3.78346777 C68.8987523,4.7687813 68.782361,6.49305411 68.782361,8.95633794 L68.782361,10.8621322 L71.3429948,10.8621322 C71.8602971,10.8621322 72.1189444,10.9788123 72.1189444,11.2121761 C72.1189444,11.4455398 71.7827029,11.5622199 71.1102099,11.5622199 L68.782361,11.5622199 L68.782361,26.7696803 C68.782361,27.1326906 69.1444672,27.314193 69.8686905,27.314193 C70.9808905,27.2882637 71.5887116,27.3401215 71.6921721,27.469768 C71.7180372,27.4956973 71.7309696,27.5475551 71.7309696,27.6253431 C71.7309696,27.8068482 71.5757812,27.8975994 71.2653998,27.8975994 C71.1102091,27.8975994 70.9808855,27.8846349 70.877425,27.8587056 L67.6960316,27.8198119 L63.4671062,27.8975994 C63.0015341,27.8975994 62.7687515,27.8068482 62.7687515,27.6253431 C62.7687515,27.4179086 62.9498046,27.314193 63.3119162,27.314193 C64.6051721,27.314193 65.3164521,27.2364062 65.4457777,27.0808304 C65.4975079,27.0289718 65.5233726,26.9511851 65.5233726,26.8474678 L65.5621701,26.341849 L65.5621701,11.5622199 C64.6051608,11.5622199 64.0490691,11.5492554 63.8938784,11.5233261 C63.7386877,11.4973968 63.6610936,11.3936812 63.6610936,11.2121761 C63.6610936,10.9788123 63.8938761,10.8621322 64.3594482,10.8621322 L65.6009676,10.8621322 C65.7044281,7.56911068 66.1441285,5.196615 66.9200819,3.74457401 C68.1098773,1.51465392 69.8945436,0.399710594 72.2741343,0.399710594 C73.4121994,0.399710594 74.3433297,0.671964197 75.0675529,1.21647957 C75.7917762,1.76099494 76.1538824,2.47404009 76.1538824,3.3556364 L76.1538824,3.3556364 Z M84.1461635,25.52508 C84.1461635,25.7584437 83.8228543,26.1733063 83.1762264,26.7696803 C82.0640264,27.7809232 80.7449253,28.286537 79.2188834,28.286537 C77.796302,28.286537 76.7229157,27.9235322 75.9986925,27.1975117 C75.5848506,26.7826428 75.3779328,25.5639839 75.3779328,23.5414982 L75.3779328,11.9511575 C75.3520677,11.6918645 75.2098117,11.5492554 74.9511605,11.5233261 L73.4768562,11.5233261 C72.9078237,11.5233261 72.6233116,11.4325749 72.6233116,11.2510698 C72.6233116,11.0695647 72.7655676,10.965849 73.0500839,10.9399197 C75.067563,10.7584146 76.6453115,9.77311586 77.7833766,7.98399392 C77.9385673,7.75063019 78.1325528,7.63395008 78.3653388,7.63395008 C78.5463946,7.63395008 78.6369212,7.72470128 78.6369212,7.9062064 L78.6369212,8.06178144 C78.6110561,8.19142796 78.5981237,8.41182373 78.5981237,8.72297538 C78.5981237,9.81200612 78.6498531,10.5120868 78.7533136,10.8232385 C78.9860997,10.8750971 79.3740706,10.901026 79.917238,10.901026 C81.3398195,10.901026 82.283882,10.8362037 82.7494541,10.7065572 C82.8529146,10.6806279 82.9434412,10.6676634 83.0210365,10.6676634 C83.2279574,10.6676634 83.3314164,10.7843435 83.3314164,11.0177073 C83.3314164,11.4066468 82.2838948,11.6011137 80.1888204,11.6011137 C79.8267088,11.6011137 79.2964818,11.5881492 78.5981237,11.5622199 L78.5981237,18.7575656 C78.5981237,22.3876681 78.6886502,24.6629304 78.8697061,25.5834206 C79.0507619,26.5039109 79.6456506,26.9641491 80.6543902,26.9641491 C81.507939,26.9641491 82.464934,26.4844642 83.5254038,25.52508 C83.6288642,25.3954335 83.7452555,25.3306112 83.8745811,25.3306112 C84.0556369,25.3306112 84.1461635,25.3954335 84.1461635,25.52508 L84.1461635,25.52508 Z" id="aft" fill="#2F3639"></path>
                        <path d="M83.5050374,0.0735728444 L86.4043895,0.0735728444 L86.4043895,0.6166647 L85.2657166,0.6166647 L85.2657166,3.66401345 L84.6386941,3.66401345 L84.6386941,0.6166647 L83.5050374,0.6166647 L83.5050374,0.0735728444 Z M86.8107001,0.0735728444 L87.6935478,0.0735728444 L88.6817353,2.88457606 L88.6917676,2.88457606 L89.6548742,0.0735728444 L90.5276896,0.0735728444 L90.5276896,3.66401345 L89.9307641,3.66401345 L89.9307641,0.893239256 L89.9207318,0.893239256 L88.9275281,3.66401345 L88.4108615,3.66401345 L87.4176579,0.893239256 L87.4076255,0.893239256 L87.4076255,3.66401345 L86.8107001,3.66401345 L86.8107001,0.0735728444 Z" id="TM" fill="#5B6367"></path>
                        <g id="Group" transform="translate(0.000000, 0.831037)" fill="#F10733">
                            <g id="W">
                                <path d="M38.6929678,27.2204341 L40.9354855,20.9349783 C41.9460568,18.1490107 42.7039739,16.0686116 43.2092595,14.6937186 C44.2198308,11.7630255 44.9597022,9.59217423 45.428896,8.18109976 C46.078549,6.48057412 46.5657814,5.21424424 46.8906079,4.38207212 C47.4319853,2.86245347 47.9192178,1.94888691 48.3523197,1.64134504 C48.7854217,1.33380317 49.8140235,1.14385369 51.4381559,1.07149089 C51.9795333,1.0353095 52.250218,0.872495655 52.250218,0.583044483 C52.250218,0.29359331 52.0697615,0.148869895 51.7088432,0.148869895 L51.2757434,0.148869895 C50.3373558,0.257414085 48.9478412,0.293594939 47.1071578,0.257413542 L42.8302972,0.148869895 C42.2889197,0.148869895 42.018235,0.29359331 42.018235,0.583044483 C42.018235,0.872495655 42.3069654,1.01721907 42.8844347,1.01721907 C43.9310978,1.01721907 44.580741,1.05339992 44.8333838,1.12576272 C45.5552204,1.3066697 45.9161333,1.75893037 45.9161333,2.4825583 C45.9161333,3.24236763 45.4289009,4.9066869 44.4544215,7.47556606 C43.8769522,8.99518471 43.173172,10.9670412 42.3430599,13.3911948 C41.043754,17.0455159 40.1053805,19.6324469 39.5279112,21.1520656 C38.8782582,22.9611354 38.2647063,24.6073642 37.687237,26.0908015 C34.908166,19.0354292 32.8870538,13.8796575 31.6238397,10.6233318 C33.5727985,6.06447585 34.8540393,3.29664054 35.4676005,2.31974283 C35.8646106,1.41520792 37.3443535,0.981037673 39.9068735,1.01721907 C40.448251,1.01721907 40.7189356,0.872495655 40.7189356,0.583044483 C40.7189356,0.221230517 40.3760684,0.0584166753 39.6903236,0.0945980718 L20.7963445,0.148869895 C19.6774977,0.148869895 18.8744665,0.130779468 18.3872268,0.0945980718 C17.8999871,0.0584166753 17.7105078,0.0403262484 17.8187833,0.0403262484 C17.1330385,0.0403262484 16.7901713,0.20314009 16.7901713,0.528772659 C16.7901713,0.818223831 16.9706277,0.981037673 17.331546,1.01721907 C18.5947601,1.01721907 19.4248598,1.18907813 19.8218699,1.53280139 C20.2188801,1.87652466 20.7241581,2.88054335 21.3377193,4.54488759 C21.5903621,5.23233413 21.7708185,5.73886608 21.879094,6.06449865 C22.3843796,7.40321032 22.7813838,8.3981838 23.0701185,9.04944894 C24.6220672,13.1741281 25.6687146,16.0324156 26.2100921,17.624397 L22.4204688,26.3078888 L16.8443088,11.8715838 C15.2201764,7.49363477 14.0111181,4.20117708 13.2170979,1.99411189 C13.1449142,1.81320491 13.1088229,1.65039107 13.1088229,1.50566548 C13.1088229,1.18003291 13.4155989,1.01721907 14.02916,1.01721907 C15.1840986,1.05340047 15.7615592,0.908677051 15.7615592,0.583044483 C15.7615592,0.221230517 15.5269659,0.0403262484 15.057772,0.0403262484 L14.2998474,0.0403262484 C13.8667454,0.0765076449 13.5599694,0.0945980718 13.3795103,0.0945980718 L7.91162523,0.203141719 L5.85440114,0.203141719 C4.95210537,0.203141719 3.86936668,0.185051292 2.60615259,0.148869895 C1.37903033,0.148869895 0.783524053,0.148869895 0.819615884,0.148869895 C0.314330249,0.148869895 0.0616912217,0.29359331 0.0616912217,0.583044483 C0.0616912217,0.908677051 0.530877988,1.07149089 1.4692656,1.07149089 C2.4076532,1.07149089 3.03925077,1.12576217 3.36407725,1.23430636 C3.94154655,1.37903195 4.35659638,1.77702134 4.6092392,2.42828648 C7.09957554,8.4343983 9.13873341,13.6082604 10.726774,17.950028 L14.2745407,27.2204341 L23.3316685,27.2204341 C24.4277423,24.6955928 25.6759485,21.931092 27.0762917,18.9269208 L28.9169659,23.3772103 C29.4752205,24.7296736 29.9903737,26.010747 30.4624267,27.2204341 L38.6929678,27.2204341 Z M33.6810638,2.4825583 C33.6810638,1.5056606 32.8148728,1.01721907 31.0824649,1.01721907 C29.3139652,1.01721907 28.4297286,1.34284675 28.4297286,1.99411189 C28.4297286,2.8986468 29.2959195,5.21422145 31.0283274,8.94090529 C32.7968272,5.25040284 33.6810638,3.09764204 33.6810638,2.4825583 Z" id="Combined-Shape"></path>
                            </g>
                        </g>
                        <g id="Subtext" transform="translate(3.524981, 32.644110)">
                            <path d="M4.58956208,2.00516617 C4.58956208,2.31325221 4.52932131,2.5859459 4.40883795,2.82325542 C4.28835459,3.06056493 4.12148072,3.25693214 3.90821133,3.41236294 C3.69771167,3.56779373 3.46644248,3.68158957 3.21439684,3.75375387 C2.96235119,3.82591817 2.69507602,3.86199977 2.41256332,3.86199977 L1.75198545,3.86199977 L1.75198545,5.65222051 C1.75198545,5.74936476 1.76791118,5.83471164 1.7997631,5.90826371 C1.83161502,5.98181578 1.89739518,6.03801982 1.99710554,6.07687752 C2.04696073,6.09630637 2.13489841,6.11434717 2.26092123,6.13100047 C2.38694406,6.14765377 2.50257865,6.15736805 2.60782848,6.1601436 L2.60782848,6.45573819 L0.0776906047,6.45573819 L0.0776906047,6.1601436 C0.144164182,6.1545925 0.240410938,6.14487822 0.366433761,6.13100047 C0.492456584,6.11712272 0.580394268,6.09908192 0.630249451,6.07687752 C0.713341422,6.04079537 0.773582197,5.98806072 0.810973584,5.91867197 C0.848364972,5.84928322 0.867060385,5.76046696 0.867060385,5.65222051 L0.867060385,1.38899718 C0.867060385,1.29185293 0.85321193,1.20442442 0.825514607,1.12670902 C0.797817283,1.04899363 0.732729548,0.990707953 0.630249451,0.951850254 C0.52499962,0.915768105 0.420443792,0.890094654 0.316578828,0.874829129 C0.212713863,0.859563605 0.123391334,0.849155449 0.0486085601,0.843604349 L0.0486085601,0.548009763 L2.74077497,0.548009763 C3.28918198,0.548009763 3.73440978,0.680540282 4.07647173,0.945605298 C4.41853368,1.21067031 4.58956208,1.56385374 4.58956208,2.00516617 L4.58956208,2.00516617 Z M3.32657044,3.01268575 C3.42074134,2.87945936 3.48305938,2.74137782 3.51352644,2.598437 C3.54399349,2.45549618 3.55922679,2.32712892 3.55922679,2.21333138 C3.55922679,2.05512503 3.54053138,1.89414555 3.50313999,1.73038811 C3.4657486,1.56663066 3.40135329,1.42369199 3.30995212,1.30156779 C3.21301149,1.17111695 3.08560571,1.0698109 2.92773097,0.997646598 C2.76985622,0.925482301 2.57320817,0.889400693 2.33778092,0.889400693 L1.75198545,0.889400693 L1.75198545,3.49979232 L2.17575239,3.49979232 C2.47488348,3.49979232 2.71792385,3.45330256 2.90488079,3.36032164 C3.09183773,3.26734072 3.23239954,3.15146325 3.32657044,3.01268575 L3.32657044,3.01268575 Z M8.79814938,5.48985165 C8.62642598,5.81736654 8.39654164,6.07826432 8.10848947,6.27255281 C7.8204373,6.4668413 7.48945925,6.56398409 7.11554538,6.56398409 C6.78594723,6.56398409 6.49720696,6.50569842 6.24931591,6.38912532 C6.00142486,6.27255223 5.79716016,6.11434826 5.63651569,5.91450866 C5.47587121,5.71466907 5.35608208,5.48152638 5.27714471,5.21507359 C5.19820734,4.9486208 5.15873924,4.66690671 5.15873924,4.36992287 C5.15873924,4.10347008 5.20097703,3.84187842 5.28545386,3.58514006 C5.3699307,3.32840169 5.49387437,3.09734063 5.65728858,2.89194993 C5.81516332,2.69488589 6.01111895,2.53598804 6.24516133,2.41525162 C6.47920372,2.2945152 6.74163192,2.2341479 7.03245382,2.2341479 C7.33158492,2.2341479 7.58778132,2.28133154 7.80105071,2.37570023 C8.01432011,2.47006893 8.18742578,2.59913007 8.32037294,2.76288751 C8.44778063,2.9183183 8.54264254,3.10150185 8.60496152,3.31244364 C8.6672805,3.52338543 8.69843952,3.75236487 8.69843952,3.99938881 L8.69843952,4.27416687 L5.98550022,4.27416687 C5.98550022,4.54339521 6.01111986,4.78763994 6.06235991,5.00690838 C6.11359996,5.22617683 6.19461342,5.41907465 6.30540271,5.58560765 C6.41342227,5.74658954 6.55467651,5.87356904 6.72916965,5.96654996 C6.90366278,6.05953089 7.1113896,6.10602065 7.35235631,6.10602065 C7.59886249,6.10602065 7.81143627,6.04842885 7.990084,5.93324353 C8.16873174,5.81805821 8.341145,5.61058897 8.50732894,5.31082958 L8.79814938,5.48985165 Z M7.87998769,3.92444934 C7.87998769,3.76901854 7.86683166,3.60248804 7.8405192,3.42485285 C7.81420675,3.24721766 7.77196896,3.09872796 7.71380458,2.97937932 C7.65010074,2.85170402 7.56285548,2.74762246 7.45206618,2.66713152 C7.34127689,2.58664057 7.19863781,2.5463957 7.02414467,2.5463957 C6.73332277,2.5463957 6.49166724,2.66782419 6.29917084,2.9106848 C6.10667444,3.15354542 6.00211862,3.49146355 5.98550022,3.92444934 L7.87998769,3.92444934 Z M12.4084775,2.87946002 C12.4084775,3.02101307 12.3738563,3.14660482 12.304613,3.25623904 C12.2353697,3.36587326 12.1287366,3.42068955 11.9847105,3.42068955 C11.8296055,3.42068955 11.7112013,3.38044468 11.6294941,3.29995373 C11.547787,3.21946278 11.5069341,3.13064652 11.5069341,3.03350227 C11.5069341,2.97244017 11.5117811,2.91693001 11.5214751,2.86697011 C11.5311692,2.81701021 11.5401707,2.76705106 11.5484799,2.71709116 C11.4183025,2.71709116 11.2659695,2.76982582 11.0914763,2.87529672 C10.9169832,2.98076761 10.7688047,3.13064506 10.6469365,3.32493355 L10.6469365,5.71467007 C10.6469365,5.81181432 10.6656319,5.8909163 10.7030233,5.9519784 C10.7404147,6.0130405 10.7992706,6.05883638 10.8795929,6.08936743 C10.9488362,6.11712293 11.0381587,6.13793924 11.1475631,6.15181699 C11.2569676,6.16569474 11.3518295,6.17540902 11.4321517,6.18096012 L11.4321517,6.45573819 L9.27177125,6.45573819 L9.27177125,6.18096012 C9.3354751,6.17540902 9.40125525,6.16985801 9.4691137,6.16430691 C9.53697214,6.15875581 9.59582807,6.14765377 9.64568325,6.13100047 C9.72323576,6.10602052 9.78070684,6.06230627 9.81809823,5.9998564 C9.85548962,5.93740652 9.87418503,5.85622291 9.87418503,5.75630311 L9.87418503,3.22085095 C9.87418503,3.13480891 9.85410477,3.0501559 9.81394365,2.96688941 C9.77378253,2.88362291 9.71769629,2.81701071 9.64568325,2.76705081 C9.59305834,2.73374421 9.53074029,2.70945852 9.45872725,2.69419299 C9.38671421,2.67892747 9.30916287,2.66851931 9.2260709,2.66296821 L9.2260709,2.39235345 L10.5887724,2.30076076 L10.6469365,2.35904702 L10.6469365,2.93774628 L10.6677094,2.93774628 C10.8394328,2.71292674 11.0305415,2.54223298 11.2410411,2.42565988 C11.4515408,2.30908679 11.6440343,2.25080111 11.8185274,2.25080111 C11.9930206,2.25080111 12.1349672,2.30769903 12.2443717,2.42149658 C12.3537761,2.53529412 12.4084775,2.68794708 12.4084775,2.87946002 L12.4084775,2.87946002 Z M15.4620922,4.44486234 C15.5756512,4.54478214 15.6628964,4.65996573 15.7238306,4.79041657 C15.7847647,4.92086742 15.8152313,5.08045915 15.8152313,5.26919654 C15.8152313,5.64944687 15.6732846,5.9603038 15.389387,6.20177664 C15.1054895,6.44324948 14.737813,6.56398409 14.2863466,6.56398409 C14.0481497,6.56398409 13.8286517,6.52096372 13.6278461,6.43492167 C13.4270405,6.34887962 13.283709,6.26977764 13.1978473,6.19761334 L13.1147557,6.4682281 L12.8031624,6.4682281 L12.7616166,5.04021482 L13.0482825,5.04021482 C13.0704403,5.14846126 13.1175251,5.27474689 13.1895381,5.41907548 C13.2615511,5.56340408 13.3487964,5.69385297 13.4512765,5.81042606 C13.5592961,5.93255026 13.6887791,6.03524406 13.8397295,6.11851056 C13.9906799,6.20177706 14.1603235,6.24340968 14.3486653,6.24340968 C14.6145596,6.24340968 14.8195167,6.18304238 14.9635428,6.06230596 C15.1075689,5.94156954 15.1795809,5.76879415 15.1795809,5.5439746 C15.1795809,5.42740151 15.1567309,5.32678933 15.1110303,5.24213506 C15.0653298,5.15748079 14.9981647,5.08323594 14.9095333,5.0193983 C14.8181321,4.95556065 14.7059597,4.89796885 14.5730125,4.84662118 C14.4400654,4.79527351 14.2918869,4.74462048 14.1284727,4.69466058 C13.9982953,4.65580288 13.8535789,4.60237435 13.6943193,4.53437338 C13.5350597,4.4663724 13.3986524,4.38657654 13.2850934,4.29498339 C13.1632252,4.19783915 13.0635163,4.07849229 12.9859638,3.93693925 C12.9084113,3.7953862 12.8696356,3.62885571 12.8696356,3.43734276 C12.8696356,3.10150122 12.9942717,2.81701163 13.2435476,2.58386544 C13.4928235,2.35071924 13.8265713,2.2341479 14.2448009,2.2341479 C14.4054453,2.2341479 14.5695495,2.25496421 14.7371183,2.29659746 C14.9046871,2.33823071 15.0410944,2.38818985 15.1463442,2.4464764 L15.2418995,2.22998459 L15.5410291,2.22998459 L15.6033478,3.54975197 L15.3166819,3.54975197 C15.2585176,3.25554368 15.133189,3.01615609 14.9406926,2.83158203 C14.7481962,2.64700796 14.5134649,2.55472231 14.2364917,2.55472231 C14.0093737,2.55472231 13.8307286,2.61162023 13.7005512,2.72541777 C13.5703738,2.83921532 13.505286,2.97660298 13.505286,3.13758487 C13.505286,3.26248462 13.5267511,3.36656618 13.569682,3.44983268 C13.6126128,3.53309917 13.6770081,3.60387463 13.7628698,3.66216118 C13.8459618,3.71767218 13.9505176,3.76971296 14.0765405,3.81828508 C14.2025633,3.86685721 14.3583584,3.92167349 14.5439305,3.98273559 C14.7267328,4.04102214 14.8991461,4.10902209 15.0611754,4.18673749 C15.2232047,4.26445289 15.3568423,4.35049364 15.4620922,4.44486234 L15.4620922,4.44486234 Z M20.4268126,4.36159626 C20.4268126,4.65025345 20.3811127,4.93404917 20.2897115,5.21299193 C20.1983104,5.4919347 20.0681349,5.72854678 19.8991812,5.92283527 C19.7080697,6.14487926 19.4864944,6.31002201 19.2344488,6.41826845 C18.9824031,6.5265149 18.6998947,6.58063731 18.3869149,6.58063731 C18.1265601,6.58063731 17.8786727,6.53137204 17.6432455,6.43284002 C17.4078182,6.33430799 17.1987066,6.19067544 17.0159043,6.00193805 C16.8358716,5.81597621 16.6925401,5.5890784 16.5859054,5.32123784 C16.4792708,5.05339727 16.4259542,4.7529485 16.4259542,4.41988252 C16.4259542,3.77873049 16.6122159,3.25415943 16.9847449,2.84615359 C17.3572739,2.43814775 17.8454319,2.2341479 18.4492336,2.2341479 C19.0225682,2.2341479 19.4954929,2.4277396 19.8680219,2.81492881 C20.2405509,3.20211802 20.4268126,3.71766868 20.4268126,4.36159626 L20.4268126,4.36159626 Z M19.566815,4.36992287 C19.566815,4.16175662 19.5460423,3.94179759 19.5044963,3.71003918 C19.4629504,3.47828076 19.4006323,3.28191355 19.3175403,3.12093166 C19.2289089,2.94884756 19.1125819,2.81076603 18.9685558,2.7066829 C18.8245297,2.60259978 18.6486544,2.550559 18.4409244,2.550559 C18.227655,2.550559 18.0455479,2.60329366 17.8945975,2.70876456 C17.743647,2.81423545 17.6210882,2.95856188 17.5269173,3.14174818 C17.4382859,3.31105672 17.3759678,3.50395455 17.3399613,3.72044744 C17.3039548,3.93694033 17.2859518,4.1464912 17.2859518,4.34910635 C17.2859518,4.61555914 17.3074169,4.8618855 17.3503478,5.08809281 C17.3932786,5.31430013 17.4618285,5.51621836 17.5559994,5.69385355 C17.6501703,5.87148874 17.7685745,6.01095803 17.9112158,6.11226561 C18.053857,6.21357318 18.2304248,6.2642262 18.4409244,6.2642262 C18.787141,6.2642262 19.0613404,6.09630795 19.2635308,5.76046641 C19.4657213,5.42462488 19.566815,4.961115 19.566815,4.36992287 L19.566815,4.36992287 Z M25.5452525,6.45573819 L23.5385914,6.45573819 L23.5385914,6.18096012 C23.6022952,6.17540902 23.6722299,6.16985801 23.7483976,6.16430691 C23.8245652,6.15875581 23.8875757,6.14765377 23.9374308,6.13100047 C24.0149834,6.10602052 24.0724544,6.06230627 24.1098458,5.9998564 C24.1472372,5.93740652 24.1659326,5.85622291 24.1659326,5.75630311 L24.1659326,3.64550796 C24.1659326,3.35407523 24.0973828,3.12925906 23.960281,2.97105271 C23.8231793,2.81284637 23.6563054,2.73374438 23.4596544,2.73374438 C23.3128586,2.73374438 23.1785286,2.75664232 23.0566604,2.8024389 C22.9347921,2.84823547 22.8267742,2.90443951 22.7326033,2.97105271 C22.6412021,3.03489036 22.5684977,3.10358419 22.514488,3.17713626 C22.4604782,3.25068833 22.4210101,3.30966788 22.3960825,3.35407668 L22.3960825,5.71467007 C22.3960825,5.80903877 22.4154703,5.886753 22.4542466,5.9478151 C22.4930228,6.00887719 22.5511863,6.05606083 22.6287388,6.08936743 C22.6869032,6.11712293 22.7499137,6.13793924 22.8177721,6.15181699 C22.8856306,6.16569474 22.9555653,6.17540902 23.0275783,6.18096012 L23.0275783,6.45573819 L21.0209172,6.45573819 L21.0209172,6.18096012 C21.0846211,6.17540902 21.1504012,6.16985801 21.2182597,6.16430691 C21.2861181,6.15875581 21.3449741,6.14765377 21.3948292,6.13100047 C21.4723817,6.10602052 21.5298528,6.06230627 21.5672442,5.9998564 C21.6046356,5.93740652 21.623331,5.85622291 21.623331,5.75630311 L21.623331,3.22085095 C21.623331,3.12648226 21.6032508,3.03974762 21.5630896,2.96064445 C21.5229285,2.88154128 21.4668423,2.81701071 21.3948292,2.76705081 C21.3422043,2.73374421 21.2798863,2.70945852 21.2078732,2.69419299 C21.1358602,2.67892747 21.0583089,2.66851931 20.9752169,2.66296821 L20.9752169,2.39235345 L22.3379184,2.30076076 L22.3960825,2.35904702 L22.3960825,2.93774628 L22.4168554,2.93774628 C22.483329,2.87113308 22.5664197,2.79133722 22.66613,2.6983563 C22.7658404,2.60537537 22.8600099,2.52974277 22.9486413,2.47145623 C23.0511214,2.40484303 23.1729878,2.34933286 23.3142442,2.30492407 C23.4555005,2.26051527 23.6147578,2.2383112 23.7920206,2.2383112 C24.1853226,2.2383112 24.4768326,2.36112744 24.6665592,2.60676361 C24.8562859,2.85239977 24.9511478,3.17921587 24.9511478,3.58722171 L24.9511478,5.72299668 C24.9511478,5.82014092 24.967766,5.89854903 25.0010028,5.95822336 C25.0342396,6.01789768 25.0910182,6.06438744 25.1713405,6.09769404 C25.237814,6.12544954 25.2952851,6.1448781 25.3437554,6.1559803 C25.3922257,6.1670825 25.4593907,6.17540902 25.5452525,6.18096012 L25.5452525,6.45573819 Z M29.928332,6.38079872 C29.7981546,6.42798306 29.6839049,6.4661463 29.5855794,6.49528958 C29.4872539,6.52443285 29.3757738,6.53900427 29.2511358,6.53900427 C29.0350967,6.53900427 28.8626835,6.48835124 28.7338909,6.38704367 C28.6050983,6.2857361 28.5227,6.13794029 28.4866935,5.94365179 L28.4617661,5.94365179 C28.2817335,6.14349138 28.0885475,6.29614434 27.8822025,6.40161524 C27.6758574,6.50708613 27.4272776,6.55982079 27.1364557,6.55982079 C26.8290155,6.55982079 26.5762812,6.46545351 26.3782453,6.27671611 C26.1802094,6.08797872 26.081193,5.84095849 26.081193,5.535648 C26.081193,5.37744165 26.1033505,5.23589073 26.1476662,5.11099099 C26.1919819,4.98609124 26.2584545,4.87368315 26.347086,4.77376336 C26.4163293,4.69049686 26.5077291,4.61625201 26.6212881,4.55102659 C26.7348471,4.48580117 26.8414802,4.43376039 26.9411906,4.39490269 C27.0658285,4.34771834 27.3185628,4.26028983 27.699401,4.13261454 C28.0802392,4.00493924 28.3371281,3.90502094 28.4700752,3.83285665 L28.4700752,3.42068955 C28.4700752,3.3846074 28.4624586,3.31521969 28.447225,3.21252435 C28.4319915,3.109829 28.3994476,3.01268621 28.3495925,2.92109306 C28.2941978,2.81839772 28.215954,2.72888757 28.1148588,2.65255995 C28.0137636,2.57623233 27.8704321,2.53806909 27.68486,2.53806909 C27.5574523,2.53806909 27.439048,2.55957928 27.3296436,2.6026003 C27.2202392,2.64562133 27.1433803,2.69072334 27.0990645,2.73790769 C27.0990645,2.79341868 27.1122206,2.87529618 27.138533,2.98354262 C27.1648455,3.09178907 27.1780015,3.19170737 27.1780015,3.28330051 C27.1780015,3.38044476 27.1343789,3.46926102 27.0471323,3.54975197 C26.9598858,3.63024292 26.8387118,3.67048779 26.6836068,3.67048779 C26.5451201,3.67048779 26.443334,3.62122252 26.3782453,3.5226905 C26.3131566,3.42415847 26.2806127,3.31383202 26.2806127,3.19170782 C26.2806127,3.06403253 26.3256202,2.94191017 26.4156365,2.82533707 C26.5056528,2.70876397 26.6226722,2.60468241 26.7666983,2.51308927 C26.8913363,2.43537387 27.0422844,2.36945555 27.2195473,2.31533233 C27.3968102,2.2612091 27.5699159,2.2341479 27.7388695,2.2341479 C27.971527,2.2341479 28.1744069,2.25010707 28.3475152,2.28202589 C28.5206234,2.31394472 28.6778034,2.38263855 28.8190598,2.48810944 C28.9603161,2.59080479 29.0676416,2.73027408 29.1410395,2.9065215 C29.2144374,3.08276892 29.2511358,3.30966672 29.2511358,3.58722171 C29.2511358,3.98412534 29.2469813,4.33592102 29.2386721,4.64261928 C29.2303629,4.94931755 29.2262084,5.28446017 29.2262084,5.64805721 C29.2262084,5.75630365 29.2449038,5.84234441 29.2822952,5.90618206 C29.3196866,5.9700197 29.3771576,6.02414211 29.4547102,6.06855091 C29.4962561,6.09353086 29.5620363,6.1074084 29.6520526,6.11018395 C29.7420689,6.1129595 29.8341611,6.11434726 29.928332,6.11434726 L29.928332,6.38079872 Z M28.4783844,4.18257419 C28.2429571,4.25196293 28.0366152,4.31996289 27.8593523,4.38657608 C27.6820894,4.45318928 27.5172928,4.53645453 27.3649575,4.63637433 C27.2264709,4.73074302 27.1170681,4.84245723 27.0367459,4.9715203 C26.9564236,5.10058337 26.9162631,5.2539302 26.9162631,5.4315654 C26.9162631,5.66193604 26.9765039,5.83124204 27.0969873,5.93948849 C27.2174706,6.04773493 27.370496,6.10185735 27.5560681,6.10185735 C27.7527191,6.10185735 27.9258248,6.05397983 28.0753903,5.95822336 C28.2249559,5.86246688 28.3509768,5.74936492 28.4534569,5.61891408 L28.4783844,4.18257419 Z M32.2548956,6.45573819 L30.2565437,6.45573819 L30.2565437,6.18096012 C30.3202475,6.17540902 30.3881049,6.16916413 30.460118,6.16222525 C30.532131,6.15528638 30.5916794,6.14487822 30.6387648,6.13100047 C30.7163173,6.10602052 30.7744808,6.06230627 30.8132571,5.9998564 C30.8520333,5.93740652 30.8714212,5.85622291 30.8714212,5.75630311 L30.8714212,1.0018099 C30.8714212,0.901890106 30.8499561,0.808216702 30.8070252,0.72078688 C30.7640944,0.633357058 30.7080081,0.564663228 30.6387648,0.51470333 C30.5889096,0.481396731 30.4975098,0.450866141 30.3645627,0.423110642 C30.2316155,0.395355142 30.1249824,0.378702093 30.0446602,0.373150993 L30.0446602,0.106699535 L31.5860086,0.010943542 L31.6441726,0.0733931026 L31.6441726,5.70634346 C31.6441726,5.80348771 31.6621756,5.88328357 31.6981822,5.94573344 C31.7341887,6.00818332 31.7923522,6.05606083 31.8726744,6.08936743 C31.9336085,6.11712293 31.9938493,6.13793924 32.0533986,6.15181699 C32.1129478,6.16569474 32.1801128,6.17540902 32.2548956,6.18096012 L32.2548956,6.45573819 Z M34.760106,6.45573819 L32.7783724,6.45573819 L32.7783724,6.18096012 C32.8420762,6.17540902 32.9078564,6.16985801 32.9757148,6.16430691 C33.0435733,6.15875581 33.1024292,6.14765377 33.1522844,6.13100047 C33.2298369,6.10602052 33.287308,6.06230627 33.3246994,5.9998564 C33.3620907,5.93740652 33.3807862,5.85622291 33.3807862,5.75630311 L33.3807862,3.22085095 C33.3807862,3.13203336 33.3607059,3.05084974 33.3205448,2.97729767 C33.2803837,2.90374559 33.2242974,2.84199054 33.1522844,2.79203064 C33.0996595,2.75872404 33.023493,2.73027508 32.9237826,2.7066829 C32.8240722,2.68309073 32.7326724,2.66851931 32.6495805,2.66296821 L32.6495805,2.39235345 L34.0953735,2.30076076 L34.1535376,2.35904702 L34.1535376,5.70634346 C34.1535376,5.80348771 34.172233,5.88397745 34.2096244,5.9478151 C34.2470158,6.01165274 34.3058717,6.05883638 34.386194,6.08936743 C34.4471281,6.11434738 34.5066765,6.13446982 34.5648408,6.14973534 C34.6230052,6.16500087 34.6880929,6.17540902 34.760106,6.18096012 L34.760106,6.45573819 Z M34.2366292,0.681235492 C34.2366292,0.839441836 34.1846975,0.977523372 34.0808325,1.09548424 C33.9769676,1.21344511 33.8488694,1.27242466 33.6965341,1.27242466 C33.5552777,1.27242466 33.4327189,1.21622062 33.3288539,1.10381085 C33.224989,0.99140108 33.1730573,0.863033823 33.1730573,0.718705228 C33.1730573,0.566049983 33.224989,0.432825587 33.3288539,0.319028041 C33.4327189,0.205230495 33.5552777,0.148332575 33.6965341,0.148332575 C33.8544088,0.148332575 33.9838919,0.201761109 34.0849871,0.308619781 C34.1860823,0.415478452 34.2366292,0.539682447 34.2366292,0.681235492 L34.2366292,0.681235492 Z M37.96744,4.44486234 C38.0809991,4.54478214 38.1682443,4.65996573 38.2291784,4.79041657 C38.2901126,4.92086742 38.3205792,5.08045915 38.3205792,5.26919654 C38.3205792,5.64944687 38.1786325,5.9603038 37.8947349,6.20177664 C37.6108374,6.44324948 37.2431609,6.56398409 36.7916945,6.56398409 C36.5534975,6.56398409 36.3339995,6.52096372 36.1331939,6.43492167 C35.9323884,6.34887962 35.7890569,6.26977764 35.7031951,6.19761334 L35.6201036,6.4682281 L35.3085103,6.4682281 L35.2669645,5.04021482 L35.5536303,5.04021482 C35.5757882,5.14846126 35.6228729,5.27474689 35.694886,5.41907548 C35.766899,5.56340408 35.8541443,5.69385297 35.9566244,5.81042606 C36.064644,5.93255026 36.194127,6.03524406 36.3450774,6.11851056 C36.4960278,6.20177706 36.6656714,6.24340968 36.8540132,6.24340968 C37.1199075,6.24340968 37.3248646,6.18304238 37.4688907,6.06230596 C37.6129168,5.94156954 37.6849288,5.76879415 37.6849288,5.5439746 C37.6849288,5.42740151 37.6620788,5.32678933 37.6163782,5.24213506 C37.5706776,5.15748079 37.5035126,5.08323594 37.4148812,5.0193983 C37.32348,4.95556065 37.2113075,4.89796885 37.0783604,4.84662118 C36.9454132,4.79527351 36.7972348,4.74462048 36.6338206,4.69466058 C36.5036431,4.65580288 36.3589268,4.60237435 36.1996672,4.53437338 C36.0404076,4.4663724 35.9040003,4.38657654 35.7904413,4.29498339 C35.6685731,4.19783915 35.5688642,4.07849229 35.4913117,3.93693925 C35.4137592,3.7953862 35.3749835,3.62885571 35.3749835,3.43734276 C35.3749835,3.10150122 35.4996196,2.81701163 35.7488955,2.58386544 C35.9981714,2.35071924 36.3319192,2.2341479 36.7501487,2.2341479 C36.9107932,2.2341479 37.0748974,2.25496421 37.2424662,2.29659746 C37.410035,2.33823071 37.5464423,2.38818985 37.6516921,2.4464764 L37.7472474,2.22998459 L38.046377,2.22998459 L38.1086957,3.54975197 L37.8220298,3.54975197 C37.7638654,3.25554368 37.6385369,3.01615609 37.4460405,2.83158203 C37.2535441,2.64700796 37.0188128,2.55472231 36.7418396,2.55472231 C36.5147215,2.55472231 36.3360765,2.61162023 36.2058991,2.72541777 C36.0757216,2.83921532 36.0106339,2.97660298 36.0106339,3.13758487 C36.0106339,3.26248462 36.032099,3.36656618 36.0750299,3.44983268 C36.1179607,3.53309917 36.182356,3.60387463 36.2682177,3.66216118 C36.3513097,3.71767218 36.4558655,3.76971296 36.5818883,3.81828508 C36.7079112,3.86685721 36.8637063,3.92167349 37.0492784,3.98273559 C37.2320807,4.04102214 37.4044939,4.10902209 37.5665233,4.18673749 C37.7285526,4.26445289 37.8621902,4.35049364 37.96744,4.44486234 L37.96744,4.44486234 Z M42.5790214,5.48985165 C42.407298,5.81736654 42.1774136,6.07826432 41.8893615,6.27255281 C41.6013093,6.4668413 41.2703313,6.56398409 40.8964174,6.56398409 C40.5668192,6.56398409 40.278079,6.50569842 40.0301879,6.38912532 C39.7822969,6.27255223 39.5780322,6.11434826 39.4173877,5.91450866 C39.2567432,5.71466907 39.1369541,5.48152638 39.0580167,5.21507359 C38.9790793,4.9486208 38.9396112,4.66690671 38.9396112,4.36992287 C38.9396112,4.10347008 38.981849,3.84187842 39.0663259,3.58514006 C39.1508027,3.32840169 39.2747464,3.09734063 39.4381606,2.89194993 C39.5960353,2.69488589 39.791991,2.53598804 40.0260333,2.41525162 C40.2600757,2.2945152 40.5225039,2.2341479 40.8133258,2.2341479 C41.1124569,2.2341479 41.3686533,2.28133154 41.5819227,2.37570023 C41.7951921,2.47006893 41.9682978,2.59913007 42.1012449,2.76288751 C42.2286526,2.9183183 42.3235145,3.10150185 42.3858335,3.31244364 C42.4481525,3.52338543 42.4793115,3.75236487 42.4793115,3.99938881 L42.4793115,4.27416687 L39.7663722,4.27416687 C39.7663722,4.54339521 39.7919919,4.78763994 39.8432319,5.00690838 C39.894472,5.22617683 39.9754854,5.41907465 40.0862747,5.58560765 C40.1942943,5.74658954 40.3355485,5.87356904 40.5100416,5.96654996 C40.6845348,6.05953089 40.8922616,6.10602065 41.1332283,6.10602065 C41.3797345,6.10602065 41.5923083,6.04842885 41.770956,5.93324353 C41.9496037,5.81805821 42.122017,5.61058897 42.2882009,5.31082958 L42.5790214,5.48985165 Z M41.6608597,3.92444934 C41.6608597,3.76901854 41.6477037,3.60248804 41.6213912,3.42485285 C41.5950787,3.24721766 41.552841,3.09872796 41.4946766,2.97937932 C41.4309727,2.85170402 41.3437275,2.74762246 41.2329382,2.66713152 C41.1221489,2.58664057 40.9795098,2.5463957 40.8050167,2.5463957 C40.5141948,2.5463957 40.2725392,2.66782419 40.0800428,2.9106848 C39.8875464,3.15354542 39.7829906,3.49146355 39.7663722,3.92444934 L41.6608597,3.92444934 Z M47.5395873,6.38079872 L46.1104125,6.4723914 L46.0480938,6.41410515 L46.0480938,6.03108118 L46.0148572,6.02275457 C45.8708311,6.18373646 45.6928785,6.31557311 45.480994,6.41826845 C45.2691094,6.5209638 45.0509963,6.5723107 44.826648,6.5723107 C44.5939905,6.5723107 44.3689531,6.52026992 44.1515291,6.4161868 C43.9341051,6.31210368 43.7450737,6.16569562 43.5844292,5.97695822 C43.421015,5.78544528 43.291532,5.55507809 43.1959762,5.28584975 C43.1004204,5.01662141 43.0526433,4.71964203 43.0526433,4.39490269 C43.0526433,4.09791885 43.1038825,3.81620476 43.2063626,3.54975197 C43.3088427,3.28329918 43.450097,3.05015649 43.6301296,2.85031689 C43.7990832,2.66435505 44.0061176,2.51586536 44.2512389,2.40484336 C44.4963603,2.29382137 44.7463249,2.2383112 45.0011402,2.2383112 C45.1922518,2.2383112 45.3798983,2.2625969 45.5640855,2.31116902 C45.7482727,2.35974114 45.9068375,2.4214962 46.0397847,2.49643605 L46.0397847,1.06842277 C46.0397847,0.951849671 46.0203969,0.84568648 45.9816206,0.749930008 C45.9428443,0.654173537 45.8888354,0.581316445 45.8195921,0.531356546 C45.7420396,0.478621098 45.6374837,0.44045786 45.5059214,0.416865685 C45.3743592,0.393273511 45.2324125,0.375926585 45.0800772,0.364824385 L45.0800772,0.106699535 L46.7543721,0.010943542 L46.8166907,0.0733931026 L46.8166907,5.61058747 C46.8166907,5.70773172 46.8353861,5.79030309 46.8727775,5.85830406 C46.9101689,5.92630503 46.9648703,5.98389683 47.0368834,6.03108118 C47.0895083,6.06438778 47.1656748,6.08520409 47.2653851,6.09353074 C47.3650955,6.10185739 47.4564953,6.1074084 47.5395873,6.11018395 L47.5395873,6.38079872 Z M46.0397847,5.66054712 L46.0397847,3.25832069 C46.0176268,3.18615639 45.9816208,3.10844216 45.9317657,3.02517566 C45.8819105,2.94190917 45.8195924,2.86558269 45.7448097,2.79619394 C45.6644874,2.72680519 45.5703179,2.6692134 45.4622984,2.62341682 C45.3542788,2.57762025 45.2282579,2.55472231 45.0842318,2.55472231 C44.9180479,2.55472231 44.7650224,2.59774269 44.6251509,2.68378473 C44.4852795,2.76982678 44.3613358,2.8933369 44.2533162,3.05431879 C44.1508361,3.20974959 44.0698227,3.40750455 44.0102734,3.64758962 C43.9507242,3.88767468 43.92095,4.1534296 43.92095,4.44486234 C43.92095,4.67800853 43.9431075,4.88964104 43.9874233,5.0797662 C44.031739,5.26989137 44.1065206,5.44683003 44.2117705,5.61058747 C44.3087111,5.76601826 44.4326548,5.89091614 44.5836052,5.98528483 C44.7345556,6.07965353 44.9138931,6.12683717 45.121623,6.12683717 C45.3432016,6.12683717 45.5266936,6.07826577 45.6721046,5.98112153 C45.8175155,5.88397728 45.9400743,5.77712021 46.0397847,5.66054712 L46.0397847,5.66054712 Z M53.7340628,2.83782698 C53.897477,3.03211547 54.0241903,3.25762552 54.1142066,3.51436389 C54.2042229,3.77110225 54.2492304,4.06461225 54.2492304,4.39490269 C54.2492304,4.71964203 54.1952214,5.01592754 54.0872019,5.2837681 C53.9791823,5.55160867 53.8365432,5.77989422 53.6592804,5.96863162 C53.4737083,6.16014456 53.2673663,6.3072465 53.0402483,6.40994184 C52.8131302,6.51263719 52.5721671,6.56398409 52.3173517,6.56398409 C52.0708455,6.56398409 51.8686581,6.53622901 51.7107834,6.48071801 C51.5529086,6.42520701 51.424118,6.35998257 51.3244076,6.28504272 L51.291171,6.28504272 L51.291171,7.51738072 C51.291171,7.61730051 51.3105588,7.70056576 51.3493351,7.76717896 C51.3881114,7.83379216 51.4476597,7.88236355 51.5279819,7.9128946 C51.5944555,7.93787455 51.6893174,7.96216025 51.8125705,7.98575242 C51.9358236,8.0093446 52.0376098,8.02252826 52.117932,8.02530381 L52.117932,8.30424518 L49.8287596,8.30424518 L49.8287596,8.02530381 C49.9146213,8.01975271 49.9977121,8.01281394 50.0780343,8.00448729 C50.1583565,7.99616064 50.2303685,7.9822831 50.2940723,7.96285425 C50.3771643,7.93509875 50.4353278,7.88652736 50.4685646,7.81713861 C50.5018014,7.74774986 50.5184195,7.66587237 50.5184195,7.57150367 L50.5184195,3.20419774 C50.5184195,3.12093124 50.4976469,3.0404415 50.4561009,2.9627261 C50.4145549,2.88501071 50.3605459,2.82256177 50.2940723,2.77537742 C50.2442172,2.74207082 50.1749749,2.71639737 50.0863435,2.6983563 C49.997712,2.68031522 49.9118516,2.66851931 49.8287596,2.66296821 L49.8287596,2.39235345 L51.2246978,2.30076076 L51.2828619,2.35072041 L51.2828619,2.81284716 L51.3160985,2.82117377 C51.4601246,2.65464077 51.6387696,2.51586536 51.852039,2.40484336 C52.0653084,2.29382137 52.2771898,2.2383112 52.4876894,2.2383112 C52.7425048,2.2383112 52.9758512,2.29243361 53.1877358,2.40068006 C53.3996203,2.5089265 53.5817275,2.65464069 53.7340628,2.83782698 L53.7340628,2.83782698 Z M53.0568666,5.78960954 C53.1676559,5.61752545 53.2493617,5.41768885 53.3019867,5.19009376 C53.3546116,4.96249867 53.3809236,4.70853966 53.3809236,4.42820912 C53.3809236,4.22281843 53.3587661,4.01326756 53.3144504,3.79955021 C53.2701347,3.58583287 53.2008924,3.39987382 53.1067215,3.24166747 C53.0125506,3.08068558 52.8892994,2.95023669 52.7369641,2.85031689 C52.5846288,2.7503971 52.4018292,2.70043795 52.1885598,2.70043795 C51.9835996,2.70043795 51.8091091,2.74553996 51.665083,2.83574533 C51.5210569,2.9259507 51.3964208,3.03350165 51.291171,3.15840139 L51.291171,5.58560765 C51.3160986,5.66054749 51.3569515,5.73826172 51.4137311,5.81875267 C51.4705106,5.89924362 51.533521,5.96863132 51.6027643,6.02691787 C51.688626,6.09630662 51.7814107,6.15251066 51.8811211,6.19553169 C51.9808314,6.23855271 52.1026978,6.2600629 52.2467239,6.2600629 C52.4018289,6.2600629 52.5513922,6.21912415 52.6954183,6.13724543 C52.8394444,6.05536671 52.9599259,5.93948924 53.0568666,5.78960954 L53.0568666,5.78960954 Z M58.4910543,5.48985165 C58.3193309,5.81736654 58.0894466,6.07826432 57.8013944,6.27255281 C57.5133422,6.4668413 57.1823642,6.56398409 56.8084503,6.56398409 C56.4788522,6.56398409 56.1901119,6.50569842 55.9422208,6.38912532 C55.6943298,6.27255223 55.4900651,6.11434826 55.3294206,5.91450866 C55.1687761,5.71466907 55.048987,5.48152638 54.9700496,5.21507359 C54.8911123,4.9486208 54.8516442,4.66690671 54.8516442,4.36992287 C54.8516442,4.10347008 54.893882,3.84187842 54.9783588,3.58514006 C55.0628356,3.32840169 55.1867793,3.09734063 55.3501935,2.89194993 C55.5080683,2.69488589 55.7040239,2.53598804 55.9380663,2.41525162 C56.1721087,2.2945152 56.4345369,2.2341479 56.7253588,2.2341479 C57.0244899,2.2341479 57.2806863,2.28133154 57.4939557,2.37570023 C57.707225,2.47006893 57.8803307,2.59913007 58.0132779,2.76288751 C58.1406856,2.9183183 58.2355475,3.10150185 58.2978665,3.31244364 C58.3601854,3.52338543 58.3913445,3.75236487 58.3913445,3.99938881 L58.3913445,4.27416687 L55.6784052,4.27416687 C55.6784052,4.54339521 55.7040248,4.78763994 55.7552648,5.00690838 C55.8065049,5.22617683 55.8875184,5.41907465 55.9983076,5.58560765 C56.1063272,5.74658954 56.2475814,5.87356904 56.4220746,5.96654996 C56.5965677,6.05953089 56.8042945,6.10602065 57.0452612,6.10602065 C57.2917674,6.10602065 57.5043412,6.04842885 57.6829889,5.93324353 C57.8616367,5.81805821 58.0340499,5.61058897 58.2002339,5.31082958 L58.4910543,5.48985165 Z M57.5728926,3.92444934 C57.5728926,3.76901854 57.5597366,3.60248804 57.5334241,3.42485285 C57.5071117,3.24721766 57.4648739,3.09872796 57.4067095,2.97937932 C57.3430057,2.85170402 57.2557604,2.74762246 57.1449711,2.66713152 C57.0341818,2.58664057 56.8915427,2.5463957 56.7170496,2.5463957 C56.4262277,2.5463957 56.1845722,2.66782419 55.9920758,2.9106848 C55.7995794,3.15354542 55.6950236,3.49146355 55.6784052,3.92444934 L57.5728926,3.92444934 Z M62.1013824,2.87946002 C62.1013824,3.02101307 62.0667613,3.14660482 61.997518,3.25623904 C61.9282747,3.36587326 61.8216416,3.42068955 61.6776155,3.42068955 C61.5225105,3.42068955 61.4041062,3.38044468 61.3223991,3.29995373 C61.240692,3.21946278 61.199839,3.13064652 61.199839,3.03350227 C61.199839,2.97244017 61.204686,2.91693001 61.2143801,2.86697011 C61.2240741,2.81701021 61.2330756,2.76705106 61.2413848,2.71709116 C61.1112074,2.71709116 60.9588744,2.76982582 60.7843813,2.87529672 C60.6098881,2.98076761 60.4617097,3.13064506 60.3398414,3.32493355 L60.3398414,5.71467007 C60.3398414,5.81181432 60.3585368,5.8909163 60.3959282,5.9519784 C60.4333196,6.0130405 60.4921756,6.05883638 60.5724978,6.08936743 C60.6417411,6.11712293 60.7310636,6.13793924 60.8404681,6.15181699 C60.9498725,6.16569474 61.0447344,6.17540902 61.1250566,6.18096012 L61.1250566,6.45573819 L58.9646762,6.45573819 L58.9646762,6.18096012 C59.02838,6.17540902 59.0941602,6.16985801 59.1620186,6.16430691 C59.2298771,6.15875581 59.288733,6.14765377 59.3385882,6.13100047 C59.4161407,6.10602052 59.4736118,6.06230627 59.5110032,5.9998564 C59.5483946,5.93740652 59.56709,5.85622291 59.56709,5.75630311 L59.56709,3.22085095 C59.56709,3.13480891 59.5470097,3.0501559 59.5068486,2.96688941 C59.4666875,2.88362291 59.4106012,2.81701071 59.3385882,2.76705081 C59.2859633,2.73374421 59.2236452,2.70945852 59.1516322,2.69419299 C59.0796191,2.67892747 59.0020678,2.66851931 58.9189758,2.66296821 L58.9189758,2.39235345 L60.2816773,2.30076076 L60.3398414,2.35904702 L60.3398414,2.93774628 L60.3606143,2.93774628 C60.5323377,2.71292674 60.7234464,2.54223298 60.9339461,2.42565988 C61.1444457,2.30908679 61.3369392,2.25080111 61.5114324,2.25080111 C61.6859255,2.25080111 61.8278722,2.30769903 61.9372766,2.42149658 C62.046681,2.53529412 62.1013824,2.68794708 62.1013824,2.87946002 L62.1013824,2.87946002 Z M65.4998271,0.506376722 C65.4998271,0.631276468 65.4665908,0.736745782 65.4001172,0.822787829 C65.3336436,0.908829876 65.2325499,0.951850254 65.096833,0.951850254 C65.0109713,0.951850254 64.9354972,0.93380945 64.8704085,0.897727302 C64.8053198,0.861645153 64.745079,0.813073758 64.6896844,0.75201166 C64.6342897,0.690949562 64.5830505,0.621561856 64.535965,0.543846459 C64.4888796,0.466131061 64.448719,0.403682125 64.4154822,0.356497777 C64.2299102,0.364824427 64.0865787,0.494579438 63.9854834,0.745766704 C63.8843882,0.99695397 63.8338414,1.39732104 63.8338414,1.94687992 L63.8338414,2.36737363 L64.8891041,2.36737363 L64.8891041,2.76705081 L63.8338414,2.76705081 L63.8338414,5.71467007 C63.8338414,5.81181432 63.8525368,5.8909163 63.8899282,5.9519784 C63.9273195,6.0130405 63.9861755,6.05883638 64.0664977,6.08936743 C64.1329713,6.11434738 64.2216014,6.13446982 64.3323907,6.14973534 C64.44318,6.16500087 64.5387343,6.17540902 64.6190566,6.18096012 L64.6190566,6.45573819 L62.4586761,6.45573819 L62.4586761,6.18096012 C62.52238,6.17540902 62.5881601,6.16985801 62.6560186,6.16430691 C62.723877,6.15875581 62.7827329,6.14765377 62.8325881,6.13100047 C62.9101406,6.10602052 62.9676117,6.06230627 63.0050031,5.9998564 C63.0423945,5.93740652 63.0610899,5.85622291 63.0610899,5.75630311 L63.0610899,2.76705081 L62.2509472,2.76705081 L62.2509472,2.36737363 L63.0610899,2.36737363 L63.0610899,2.10508547 C63.0610899,1.48058674 63.2224244,0.974750362 63.5450982,0.587561151 C63.867772,0.20037194 64.2714545,0.006780238 64.7561576,0.006780238 C65.0026638,0.006780238 65.1882331,0.0553516327 65.3128711,0.152495879 C65.437509,0.249640126 65.4998271,0.367599227 65.4998271,0.506376722 L65.4998271,0.506376722 Z M69.6087045,6.38079872 L68.275085,6.4723914 L68.2127663,6.41410515 L68.2127663,5.89369214 L68.1878389,5.89369214 C68.1213653,5.96308089 68.0465837,6.03732574 67.9634917,6.11642891 C67.8803997,6.19553208 67.7848454,6.26700142 67.6768258,6.33083907 C67.5521879,6.40577891 67.4317063,6.46267683 67.3153775,6.50153453 C67.1990488,6.54039223 67.0342522,6.55982079 66.8209828,6.55982079 C66.4581478,6.55982079 66.1818712,6.44116781 65.9921445,6.20385829 C65.8024179,5.96654878 65.7075559,5.62169188 65.7075559,5.16927724 L65.7075559,3.20419774 C65.7075559,3.10427794 65.6888605,3.02031882 65.6514691,2.95231784 C65.6140778,2.88431687 65.5593764,2.82533732 65.4873633,2.77537742 C65.4375081,2.74207082 65.3751901,2.71778513 65.3004073,2.7025196 C65.2256245,2.68725408 65.1466884,2.67684592 65.0635964,2.67129482 L65.0635964,2.40068006 L66.4304525,2.30076076 L66.4927711,2.35904702 L66.4927711,5.21091028 C66.4927711,5.50789412 66.5592437,5.73132254 66.6921909,5.88120223 C66.825138,6.03108193 66.9843953,6.10602065 67.1699673,6.10602065 C67.3223026,6.10602065 67.4580175,6.08242883 67.5771159,6.03524448 C67.6962144,5.98806013 67.7959233,5.93254997 67.8762455,5.86871232 C67.9510283,5.81042577 68.0168085,5.74867071 68.073588,5.68344529 C68.1303675,5.61821987 68.1739901,5.55785256 68.2044572,5.50234156 L68.2044572,3.17505461 C68.2044572,3.08346146 68.1850694,3.00227785 68.1462931,2.93150132 C68.1075168,2.8607248 68.0535079,2.8003575 67.9842646,2.7503976 C67.9344094,2.717091 67.8603202,2.69696856 67.7619947,2.69002969 C67.6636692,2.68309081 67.5535739,2.67684592 67.4317057,2.67129482 L67.4317057,2.40068006 L68.9190446,2.30076076 L68.9813632,2.35904702 L68.9813632,5.61891408 C68.9813632,5.71328277 69.0007511,5.79377251 69.0395273,5.86038571 C69.0783036,5.92699891 69.1323126,5.98389683 69.2015559,6.03108118 C69.251411,6.06161223 69.3109594,6.08173466 69.3802027,6.09144909 C69.449446,6.10116351 69.5256125,6.1074084 69.6087045,6.11018395 L69.6087045,6.38079872 Z" id="Personalised-perfume" fill="#2F3639"></path>
                            <path d="M83.1443189,5.97695822 C83.1443189,6.13238902 83.0882327,6.26491954 82.9760585,6.37455376 C82.8638844,6.48418798 82.7302468,6.53900427 82.5751418,6.53900427 C82.4200368,6.53900427 82.2863992,6.48418798 82.174225,6.37455376 C82.0620508,6.26491954 82.0059646,6.13238902 82.0059646,5.97695822 C82.0059646,5.82152743 82.0620508,5.68760916 82.174225,5.57519938 C82.2863992,5.46278961 82.4200368,5.40658557 82.5751418,5.40658557 C82.7302468,5.40658557 82.8638844,5.46278961 82.9760585,5.57519938 C83.0882327,5.68760916 83.1443189,5.82152743 83.1443189,5.97695822 L83.1443189,5.97695822 Z" id="Path" fill="#F10733"></path>
                            <path d="M81.2456769,5.48985165 C81.0739535,5.81736654 80.8440691,6.07826432 80.556017,6.27255281 C80.2679648,6.4668413 79.9369867,6.56398409 79.5630729,6.56398409 C79.2334747,6.56398409 78.9447344,6.50569842 78.6968434,6.38912532 C78.4489524,6.27255223 78.2446877,6.11434826 78.0840432,5.91450866 C77.9233987,5.71466907 77.8036096,5.48152638 77.7246722,5.21507359 C77.6457348,4.9486208 77.6062667,4.66690671 77.6062667,4.36992287 C77.6062667,4.10347008 77.6485045,3.84187842 77.7329814,3.58514006 C77.8174582,3.32840169 77.9414019,3.09734063 78.1048161,2.89194993 C78.2626908,2.69488589 78.4586464,2.53598804 78.6926888,2.41525162 C78.9267312,2.2945152 79.1891594,2.2341479 79.4799813,2.2341479 C79.7791124,2.2341479 80.0353088,2.28133154 80.2485782,2.37570023 C80.4618476,2.47006893 80.6349533,2.59913007 80.7679004,2.76288751 C80.8953081,2.9183183 80.99017,3.10150185 81.052489,3.31244364 C81.114808,3.52338543 81.145967,3.75236487 81.145967,3.99938881 L81.145967,4.27416687 L78.4330277,4.27416687 C78.4330277,4.54339521 78.4586473,4.78763994 78.5098874,5.00690838 C78.5611274,5.22617683 78.6421409,5.41907465 78.7529302,5.58560765 C78.8609498,5.74658954 79.002204,5.87356904 79.1766971,5.96654996 C79.3511903,6.05953089 79.5589171,6.10602065 79.7998838,6.10602065 C80.04639,6.10602065 80.2589638,6.04842885 80.4376115,5.93324353 C80.6162592,5.81805821 80.7886725,5.61058897 80.9548564,5.31082958 L81.2456769,5.48985165 Z M80.3275152,3.92444934 C80.3275152,3.76901854 80.3143591,3.60248804 80.2880467,3.42485285 C80.2617342,3.24721766 80.2194964,3.09872796 80.1613321,2.97937932 C80.0976282,2.85170402 80.010383,2.74762246 79.8995937,2.66713152 C79.7888044,2.58664057 79.6461653,2.5463957 79.4716722,2.5463957 C79.1808503,2.5463957 78.9391947,2.66782419 78.7466983,2.9106848 C78.5542019,3.15354542 78.4496461,3.49146355 78.4330277,3.92444934 L80.3275152,3.92444934 Z" id="Combined-Shape" fill="#F10733"></path>
                            <path d="M77.1284903,6.45573819 L75.1301384,6.45573819 L75.1301384,6.18096012 C75.1938422,6.17540902 75.2582375,6.16985801 75.3233262,6.16430691 C75.3884149,6.15875581 75.445886,6.14765377 75.4957412,6.13100047 C75.5732937,6.10602052 75.6307648,6.06230627 75.6681562,5.9998564 C75.7055476,5.93740652 75.724243,5.85622291 75.724243,5.75630311 L75.724243,3.63718136 C75.724243,3.34852417 75.6584628,3.12578963 75.5269005,2.96897106 C75.3953383,2.81215249 75.2312341,2.73374438 75.0345831,2.73374438 C74.8988662,2.73374438 74.7714604,2.75456069 74.6523619,2.79619394 C74.5332634,2.83782719 74.4238606,2.89611286 74.3241503,2.97105271 C74.243828,3.03211481 74.176663,3.09803313 74.1226533,3.16880965 C74.0686435,3.23958618 74.0277905,3.29856573 74.0000932,3.34575007 L74.0000932,5.71467007 C74.0000932,5.81181432 74.0167114,5.89161018 74.0499481,5.95406005 C74.0831849,6.01650992 74.1399636,6.06438744 74.2202858,6.09769404 C74.2839897,6.12267399 74.3414608,6.14140867 74.3927008,6.15389865 C74.4439409,6.16638862 74.5111059,6.17540902 74.5941978,6.18096012 L74.5941978,6.45573819 L72.6373917,6.45573819 L72.6373917,6.18096012 C72.7010955,6.17540902 72.7627212,6.16985801 72.8222704,6.16430691 C72.8818197,6.15875581 72.936521,6.14765377 72.9863762,6.13100047 C73.0639287,6.10602052 73.1213998,6.06230627 73.1587912,5.9998564 C73.1961826,5.93740652 73.214878,5.85622291 73.214878,5.75630311 L73.214878,3.63718136 C73.214878,3.34852417 73.1490978,3.12578963 73.0175356,2.96897106 C72.8859733,2.81215249 72.7218691,2.73374438 72.5252181,2.73374438 C72.3895012,2.73374438 72.2620954,2.75525457 72.1429969,2.79827559 C72.0238984,2.84129662 71.9144957,2.90027617 71.8147853,2.97521602 C71.7344631,3.03627811 71.6666056,3.10497194 71.611211,3.18129956 C71.5558163,3.25762719 71.514271,3.31521898 71.4865736,3.35407668 L71.4865736,5.70634346 C71.4865736,5.80071216 71.5059615,5.87981414 71.5447377,5.94365179 C71.583514,6.00748944 71.6416775,6.05606083 71.71923,6.08936743 C71.7773944,6.11712293 71.8369427,6.13793924 71.8978768,6.15181699 C71.958811,6.16569474 72.0266684,6.17540902 72.1014512,6.18096012 L72.1014512,6.45573819 L70.1114084,6.45573819 L70.1114084,6.18096012 C70.1751122,6.17540902 70.2408924,6.16985801 70.3087508,6.16430691 C70.3766093,6.15875581 70.4354652,6.14765377 70.4853204,6.13100047 C70.5628729,6.10602052 70.620344,6.06230627 70.6577354,5.9998564 C70.6951268,5.93740652 70.7138222,5.85622291 70.7138222,5.75630311 L70.7138222,3.20419774 C70.7138222,3.11538014 70.6937419,3.03558428 70.6535808,2.96480775 C70.6134197,2.89403123 70.5573334,2.83366393 70.4853204,2.78370403 C70.4326955,2.75039743 70.3676077,2.72333622 70.2900552,2.7025196 C70.2125027,2.68170298 70.1321817,2.66851931 70.0490897,2.66296821 L70.0490897,2.39235345 L71.4201004,2.30076076 L71.4782645,2.35904702 L71.4782645,2.94607289 L71.5073465,2.94607289 C71.5765898,2.87668414 71.6610654,2.79480665 71.7607758,2.70043795 C71.8604861,2.60606925 71.9532708,2.52974277 72.0391325,2.47145623 C72.1360731,2.40484303 72.2572471,2.34933286 72.402658,2.30492407 C72.548069,2.26051527 72.705249,2.2383112 72.8742026,2.2383112 C73.1400969,2.2383112 73.3685964,2.30978054 73.559708,2.45272136 C73.7508195,2.59566218 73.8879192,2.76843757 73.9710112,2.97105271 C74.0707215,2.87390846 74.1586592,2.78856159 74.2348269,2.71500951 C74.3109945,2.64145744 74.4113958,2.56304933 74.5360337,2.47978283 C74.6412836,2.40761854 74.7652272,2.34933286 74.9078685,2.30492407 C75.0505097,2.26051527 75.2090745,2.2383112 75.3835676,2.2383112 C75.7297842,2.2383112 76.0039835,2.35210704 76.206174,2.57970213 C76.4083645,2.80729722 76.5094582,3.15701127 76.5094582,3.62885475 L76.5094582,5.71467007 C76.5094582,5.81181432 76.5260763,5.89161018 76.5593131,5.95406005 C76.5925499,6.01650992 76.6493286,6.06438744 76.7296508,6.09769404 C76.7933547,6.12267399 76.8563651,6.14140867 76.9186841,6.15389865 C76.9810031,6.16638862 77.0509378,6.17540902 77.1284903,6.18096012 L77.1284903,6.45573819 Z" id="Path" fill="#F10733"></path>
                        </g>
                    </g>
                </g>
            </g>
        </g>
    </g>
</svg>