<?xml version="1.0" encoding="utf-8"?>
<!-- Generator: Adobe Illustrator 21.0.0, SVG Export Plug-In . SVG Version: 6.00 Build 0)  -->
<svg version="1.1" id="Layer_1" xmlns="http://www.w3.org/2000/svg" xmlns:xlink="http://www.w3.org/1999/xlink" x="0px" y="0px"
	 viewBox="0 0 41.6 58" style="enable-background:new 0 0 41.6 58;" xml:space="preserve">
<style type="text/css">
	.st0{fill:#303739;}
</style>
<g id="Page-1">
	<g id="The-New-You" transform="translate(-1168.000000, -4282.000000)">
		<g id="Group-8" transform="translate(871.000000, 4195.000000)">
			<g id="bathroom-black-bottle-container-with-spray-system">
				<path id="Path" class="st0" d="M328.3,124.8V145h-21v-20.2c0-3.6,1.8-6.7,4.5-8.6v-5.7c0-0.9,0.7-1.6,1.6-1.6h1.1v-4.1
					c0-0.9,0.7-1.6,1.6-1.6h3.3c0.9,0,1.6,0.7,1.6,1.6v4.1h1.1c0.9,0,1.6,0.7,1.6,1.6v5.7C326.5,118.1,328.3,121.3,328.3,124.8z"/>
			</g>
		</g>
	</g>
</g>
</svg>
